Division,WeightClassKg,Place,Name,Team,BodyweightKg,Best3SquatKg,Best3BenchKg,Best3DeadliftKg,TotalKg,Equipment,Event,Sex
Boys,52,1,Ezekiel Eldridge,Katy Taylor,48.72,117.93,72.57,127.01,317.51,Single-ply,SBD,M
Boys,52,2,Alfredo Barron,Splendora,49.35,113.4,58.97,145.15,317.51,Single-ply,SBD,M
Boys,52,3,Ian Alvarez,Conroe The Woodlands,50.8,102.06,56.7,120.2,278.96,Single-ply,SBD,M
Boys,52,4,Nate Colborn,Montgomery,44.18,117.93,47.63,111.13,276.69,Single-ply,SBD,M
Boys,52,5,Alec Ohnheiser,Conroe,48.99,92.99,61.23,88.45,242.67,Single-ply,SBD,M
Boys,52,6,Blaise Ohnheiser,Conroe,45.36,86.18,47.63,92.99,226.8,Single-ply,SBD,M
Boys,52,7,Jerry Moody,Bryan,51.26,77.11,47.63,99.79,224.53,Single-ply,SBD,M
Boys,52,DQ,Jack Lockhart,Conroe The Woodlands,51.26,102.06,70.31,,,Single-ply,SBD,M
Boys,56,1,AJ Ono,Conroe The Woodlands,55.79,167.83,97.52,163.29,428.64,Single-ply,SBD,M
Boys,56,2,Michael Hushka,Conroe The Woodlands,55.34,136.08,72.57,145.15,353.8,Single-ply,SBD,M
Boys,56,3,Noel Spurlock,Montgomery,55.66,106.59,58.97,145.15,310.71,Single-ply,SBD,M
Boys,56,4,Tanner Babin,Montgomery,53.07,106.59,52.16,120.2,278.96,Single-ply,SBD,M
Boys,56,5,Casey Avellaneola,Splendora,55.34,81.65,54.43,113.4,249.48,Single-ply,SBD,M
Boys,60,1,Edgar Benegas,Conroe,59.42,165.56,86.18,210.92,462.66,Single-ply,SBD,M
Boys,60,2,Dylan McMullen,Splendora,57.15,129.27,72.57,136.08,337.93,Single-ply,SBD,M
Boys,60,3,Alan Rosales,Waller,58.51,97.52,63.5,147.42,308.44,Single-ply,SBD,M
Boys,60,4,Zach Mills,Conroe Woodlands College Park,57.61,97.52,68.04,124.74,290.3,Single-ply,SBD,M
Boys,60,DQ,Kelbe Sylvan,Katy Taylor,58.97,,,,,Single-ply,SBD,M
Boys,67.5,1,Gavin Webster,Conroe The Woodlands,66.68,240.4,145.15,249.48,635.03,Single-ply,SBD,M
Boys,67.5,2,James Traylor,Montgomery,63.23,165.56,90.72,213.19,469.47,Single-ply,SBD,M
Boys,67.5,3,Nick Provost,Conroe The Woodlands,66.68,174.63,83.91,195.04,453.59,Single-ply,SBD,M
Boys,67.5,4,Jacob Jackson,Conroe Woodlands College Park,64.86,165.56,111.13,154.22,430.91,Single-ply,SBD,M
Boys,67.5,5,Lane Goodwin,Splendora,63.5,138.35,90.72,181.44,410.5,Single-ply,SBD,M
Boys,67.5,6,Cole Anthony,Montgomery,64.91,161.03,83.91,161.03,405.97,Single-ply,SBD,M
Boys,67.5,7,Jose Escolero,Katy Taylor,63.5,156.49,90.72,142.88,390.09,Single-ply,SBD,M
Boys,67.5,8,Patrick Sanchez,Waller,63.96,142.88,92.99,154.22,390.09,Single-ply,SBD,M
Boys,67.5,9,Preston Pugh,Montgomery,65.95,138.35,83.91,167.83,390.09,Single-ply,SBD,M
Boys,67.5,10,Solomon Hutchins,Conroe The Woodlands,63.96,147.42,79.38,158.76,385.55,Single-ply,SBD,M
Boys,67.5,11,Fernando Rangal,Bryan,66.22,104.33,77.11,156.49,337.93,Single-ply,SBD,M
Boys,67.5,12,Breydon Smith,Conroe The Woodlands,66.68,108.86,65.77,104.33,278.96,Single-ply,SBD,M
Boys,75,1,Kenny Bounds,Montgomery,69.9,240.4,136.08,215.46,591.94,Single-ply,SBD,M
Boys,75,2,Thomas Bauer,Katy Taylor,73.94,204.12,124.74,226.8,555.65,Single-ply,SBD,M
Boys,75,3,Anthony Salazar,Conroe The Woodlands,69.85,183.7,124.74,197.31,505.76,Single-ply,SBD,M
Boys,75,4,Mark Vavra,Bryan,73.94,176.9,113.4,188.24,478.54,Single-ply,SBD,M
Boys,75,5,Kaku Asare,Conroe Woodlands College Park,68.49,176.9,97.52,183.7,458.13,Single-ply,SBD,M
Boys,75,6,Noah Delahoussaye,Montgomery,70.9,192.78,95.25,167.83,455.86,Single-ply,SBD,M
Boys,75,7,Rashad Harvey,Bryan,68.95,170.1,79.38,176.9,426.38,Single-ply,SBD,M
Boys,75,8,Jacob Willard,Conroe The Woodlands,73.48,158.76,79.38,172.37,410.5,Single-ply,SBD,M
Boys,75,9,Nicholas McDaniel,Bryan,73.48,129.27,88.45,136.08,353.8,Single-ply,SBD,M
Boys,75,10,Marco Tejada,Conroe,67.4,136.08,79.38,129.27,344.73,Single-ply,SBD,M
Boys,75,11,Collin Chandler,Bryan,68.95,113.4,88.45,129.27,331.12,Single-ply,SBD,M
Boys,75,12,Dylan Box,Conroe The Woodlands,67.59,106.59,61.23,106.59,274.42,Single-ply,SBD,M
Boys,75,13,Minh Nguyen,Port Arthur Memorial,72.57,92.99,70.31,74.84,238.14,Single-ply,SBD,M
Boys,75,DQ,Blake Hagler,Splendora,73.03,115.67,,,,Single-ply,SBD,M
Boys,82.5,1,Mason Rey,Conroe,78.93,229.06,129.27,199.58,557.92,Single-ply,SBD,M
Boys,82.5,2,Michael Morris #2,Splendora,75.75,192.78,129.27,217.72,539.77,Single-ply,SBD,M
Boys,82.5,3,Cedric Lee,Port Arthur Memorial,78.47,183.7,124.74,229.06,537.51,Single-ply,SBD,M
Boys,82.5,4,Colton Canada,Montgomery,79.06,206.38,124.74,206.38,537.51,Single-ply,SBD,M
Boys,82.5,5,Ian Irby,Conroe The Woodlands,79.38,183.7,147.42,201.85,532.97,Single-ply,SBD,M
Boys,82.5,6,Bryeton Gilford,Conroe The Woodlands,82.1,190.51,117.93,190.51,498.95,Single-ply,SBD,M
Boys,82.5,7,Jaleil Brownlow,Katy Taylor,77.56,188.24,113.4,195.04,496.68,Single-ply,SBD,M
Boys,82.5,8,Kobe Martin,Port Arthur Memorial,78.02,183.7,113.4,192.78,489.88,Single-ply,SBD,M
Boys,82.5,9,Christian Richardson,Bryan,78.93,167.83,104.33,183.7,455.86,Single-ply,SBD,M
Boys,82.5,10,Dj McCoy,Montgomery,78.2,190.51,86.18,167.83,444.52,Single-ply,SBD,M
Boys,82.5,11,Avery Vasquez,Montgomery,78.2,147.42,92.99,165.56,405.97,Single-ply,SBD,M
Boys,82.5,12,Tremell Harris,Port Arthur Memorial,80.74,136.08,79.38,149.69,365.14,Single-ply,SBD,M
Boys,82.5,DQ,Seth Robinson,Montgomery,81.69,120.2,,,,Single-ply,SBD,M
Boys,82.5,DQ,Kyle Palenik,Splendora,75.11,,,,,Single-ply,SBD,M
Boys,90,1,Roy Kelley,Conroe,88.45,283.5,131.54,281.23,696.26,Single-ply,SBD,M
Boys,90,2,Ali Jumili,Conroe The Woodlands,88.9,229.06,142.88,233.6,605.55,Single-ply,SBD,M
Boys,90,3,Ben Montgomery,Katy Taylor,85.73,204.12,136.08,204.12,544.31,Single-ply,SBD,M
Boys,90,4,Nick McBride,Conroe The Woodlands,85.28,201.85,113.4,188.24,503.49,Single-ply,SBD,M
Boys,90,5,John Blaker,Montgomery,84.91,181.44,115.67,195.04,492.15,Single-ply,SBD,M
Boys,90,6,Kyle Polack,Conroe The Woodlands,87.09,181.44,106.59,192.78,480.81,Single-ply,SBD,M
Boys,90,7,Cameron Singleton,Waller,83.91,181.44,88.45,204.12,474,Single-ply,SBD,M
Boys,90,8,Cole Sara,Conroe Woodlands College Park,84.82,172.37,108.86,185.97,467.2,Single-ply,SBD,M
Boys,90,9,Colton Camillo,Conroe,83.01,172.37,92.99,170.1,435.45,Single-ply,SBD,M
Boys,90,10,Jose Reyes,Waller,86.64,158.76,97.52,167.83,424.11,Single-ply,SBD,M
Boys,90,11,Andres Estrada,Waller,88.45,158.76,92.99,172.37,424.11,Single-ply,SBD,M
Boys,90,12,Harrison Blakey,Katy Taylor,87.09,151.95,83.91,154.22,390.09,Single-ply,SBD,M
Boys,90,13,Fabian Hall,Port Arthur Memorial,86.18,138.35,90.72,158.76,387.82,Single-ply,SBD,M
Boys,90,14,Colby Lord,Montgomery,87.91,120.2,106.59,154.22,381.02,Single-ply,SBD,M
Boys,100,1,Josh Ferguson,Katy Taylor,92.08,260.82,158.76,233.6,653.17,Single-ply,SBD,M
Boys,100,2,Kallen Miller,Montgomery,99.34,254.01,136.08,238.14,628.23,Single-ply,SBD,M
Boys,100,3,Michael Taylor,Splendora,96.62,204.12,131.54,226.8,562.45,Single-ply,SBD,M
Boys,100,4,Austin LeFevre,Katy Taylor,91.17,213.19,111.13,222.26,546.58,Single-ply,SBD,M
Boys,100,5,Cortland Brown,Conroe The Woodlands,96.62,213.19,136.08,195.04,544.31,Single-ply,SBD,M
Boys,100,6,Trevin Rohrman,Waller,93.44,204.12,113.4,181.44,498.95,Single-ply,SBD,M
Boys,100,7,Parker Coleman,Conroe The Woodlands,92.53,172.37,124.74,188.24,485.34,Single-ply,SBD,M
Boys,100,8,Nakoven Lewis,Port Arthur Memorial,97.52,197.31,115.67,163.29,476.27,Single-ply,SBD,M
Boys,100,9,Wes May,Montgomery,99.38,181.44,115.67,172.37,469.47,Single-ply,SBD,M
Boys,100,10,Oscar Alvalerga,Waller,96.16,176.9,111.13,158.76,446.79,Single-ply,SBD,M
Boys,100,11,Michael Castro,Waller,92.99,147.42,104.33,158.76,410.5,Single-ply,SBD,M
Boys,100,12,James Goodman,Montgomery,96.89,149.69,92.99,165.56,408.23,Single-ply,SBD,M
Boys,110,1,Hunter Grimmett,Montgomery,106.32,249.48,165.56,244.94,659.98,Single-ply,SBD,M
Boys,110,2,Josh Costo,Conroe The Woodlands,100.24,233.6,138.35,201.85,573.79,Single-ply,SBD,M
Boys,110,3,Nick Johnston,Conroe,104.33,226.8,140.61,197.31,564.72,Single-ply,SBD,M
Boys,110,4,Kyu Oh,Conroe Woodlands College Park,104.33,233.6,129.27,197.31,560.19,Single-ply,SBD,M
Boys,110,5,Seth Mericle,Splendora,108.59,204.12,163.29,183.7,551.11,Single-ply,SBD,M
Boys,110,6,Blaine Bright,Bryan,100.7,185.97,117.93,213.19,517.1,Single-ply,SBD,M
Boys,110,7,Alfred Berry,Port Arthur Memorial,102.06,192.78,115.67,174.63,483.08,Single-ply,SBD,M
Boys,110,8,Jakob Panah,Katy Taylor,106.14,190.51,108.86,163.29,462.66,Single-ply,SBD,M
Boys,110,9,Daniel Castro,Conroe The Woodlands,109.23,176.9,102.06,181.44,460.4,Single-ply,SBD,M
Boys,110,10,Mario Maldonaldo,Splendora,107.05,142.88,122.47,181.44,446.79,Single-ply,SBD,M
Boys,110,11,Samuel Stephens,Port Arthur Memorial,106.14,176.9,99.79,158.76,435.45,Single-ply,SBD,M
Boys,110,12,Travis Null,Conroe,107.95,242.67,124.74,,367.41,Single-ply,SB,M
Boys,125,1,Max Joiner,Conroe,117.93,244.94,147.42,201.85,594.21,Single-ply,SBD,M
Boys,125,2,Jacob Thompson,Conroe,116.57,235.87,124.74,224.53,585.13,Single-ply,SBD,M
Boys,125,3,Aj Maestre,Conroe The Woodlands,115.21,226.8,145.15,199.58,571.53,Single-ply,SBD,M
Boys,125,4,JD Williams,Montgomery,121.2,222.26,129.27,210.92,562.45,Single-ply,SBD,M
Boys,125,5,JaVarious Sullivan,Bryan,124.28,181.44,113.4,249.48,544.31,Single-ply,SBD,M
Boys,125,6,Ryan Johnson,Montgomery,117.21,201.85,140.61,199.58,542.04,Single-ply,SBD,M
Boys,125,7,Dajuan McMillian,Port Arthur Memorial,123.83,204.12,113.4,219.99,537.51,Single-ply,SBD,M
Boys,125,8,Lautaro Putallaz,Katy Taylor,113.4,204.12,104.33,204.12,512.56,Single-ply,SBD,M
Boys,125,9,Harrison Sorensen,Conroe The Woodlands,120.66,204.12,111.13,179.17,494.42,Single-ply,SBD,M
Boys,125,10,Gage Grant,Bryan,115.21,181.44,113.4,181.44,476.27,Single-ply,SBD,M
Boys,125,11,Herman McElroy,Port Arthur Memorial,123.38,192.78,97.52,163.29,453.59,Single-ply,SBD,M
Boys,125,12,Mason Minor,Bryan,112.49,136.08,120.2,185.97,442.25,Single-ply,SBD,M
Boys,125,13,Rayan Darvishi,Conroe Woodlands College Park,121.11,172.37,95.25,163.29,430.91,Single-ply,SBD,M
Boys,125,14,Sam Del Angel,Conroe Woodlands College Park,116.57,163.29,74.84,167.83,405.97,Single-ply,SBD,M
Boys,125+,1,Blake Leslie,Montgomery,125.65,199.58,95.25,192.78,487.61,Single-ply,SBD,M
