Division,WeightClassKg,Place,Name,Team,BodyweightKg,Best3SquatKg,Best3BenchKg,Best3DeadliftKg,TotalKg,Equipment,Event,Sex
Boys,52,1,John Magbanua,Texarkana Texas,51.53,129.27,61.23,131.54,322.05,Single-ply,SBD,M
Boys,52,2,Jaden Prince,Waskom,51.26,81.65,63.5,115.67,260.82,Single-ply,SBD,M
Boys,52,3,Jordan Prignit,Atlanta,51.53,97.52,38.56,97.52,233.6,Single-ply,SBD,M
Boys,56,1,James Fisher,Texarkana Texas,55.07,154.22,79.38,154.22,387.82,Single-ply,SBD,M
Boys,56,2,Rodrigo Rojas,Hallsville,55.7,117.93,77.11,145.15,340.19,Single-ply,SBD,M
Boys,56,3,Dalton Johnson,Atlanta,55.52,124.74,63.5,131.54,319.78,Single-ply,SBD,M
Boys,56,4,Dylan Sumerlin,Hallsville,55.7,99.79,61.23,124.74,285.76,Single-ply,SBD,M
Boys,56,5,Chris Larry,Hallsville,55.34,88.45,52.16,111.13,251.74,Single-ply,SBD,M
Boys,56,DQ,Matt Nichols,Waskom,55.07,104.33,,,,Single-ply,SBD,M
Boys,60,1,Laravione Finley,Texarkana Texas,59.51,170.1,81.65,165.56,417.3,Single-ply,SBD,M
Boys,60,2,JJ Jones,Waskom,59.56,145.15,83.91,158.76,387.82,Single-ply,SBD,M
Boys,60,3,Jack Eldridge,Hallsville,59.69,131.54,95.25,156.49,383.29,Single-ply,SBD,M
Boys,60,4,Tramaine Butler,Waskom,59.83,136.08,81.65,165.56,383.29,Single-ply,SBD,M
Boys,60,5,Pedro Rodriquez,Waskom,59.6,140.61,90.72,133.81,365.14,Single-ply,SBD,M
Boys,60,6,Keilinn Shelton,Carthage,57.33,145.15,79.38,131.54,356.07,Single-ply,SBD,M
Boys,60,7,Hunter Johnson,Waskom,58.38,122.47,81.65,151.95,356.07,Single-ply,SBD,M
Boys,60,8,TK Hamilton,Waskom,59.83,133.81,74.84,140.61,349.27,Single-ply,SBD,M
Boys,60,9,Bryan Holland,Waskom,59.78,104.33,70.31,133.81,308.44,Single-ply,SBD,M
Boys,60,DQ,Roshabrius Garrett,Carthage,58.33,,,,,Single-ply,SBD,M
Boys,67.5,1,Jason Jinks,Waskom,66.27,165.56,95.25,172.37,433.18,Single-ply,SBD,M
Boys,67.5,2,Tay Green,Waskom,67.04,147.42,97.52,156.49,401.43,Single-ply,SBD,M
Boys,67.5,3,Tramel Butler,Waskom,66.72,147.42,88.45,163.29,399.16,Single-ply,SBD,M
Boys,67.5,4,Clayton Mosley,Atlanta,66.81,149.69,90.72,154.22,394.63,Single-ply,SBD,M
Boys,67.5,5,Luke Anthony,Atlanta,64.14,122.47,68.04,131.54,322.05,Single-ply,SBD,M
Boys,67.5,6,Brady Emerson,Hallsville,65.77,104.33,68.04,127.01,299.37,Single-ply,SBD,M
Boys,75,1,John Hays,Texarkana Texas,73.75,174.63,108.86,197.31,480.81,Single-ply,SBD,M
Boys,75,2,Greg Hurst,Carthage,71.8,172.37,95.25,188.24,455.86,Single-ply,SBD,M
Boys,75,3,Chris Stafford,Waskom,70.44,172.37,97.52,179.17,449.06,Single-ply,SBD,M
Boys,75,4,Chris Pacheco,Waskom,74.3,174.63,68.04,156.49,399.16,Single-ply,SBD,M
Boys,75,5,Jacob Nash,Atlanta,71.3,142.88,81.65,163.29,387.82,Single-ply,SBD,M
Boys,75,6,Domnique Felder,Hallsville,70.31,124.74,79.38,158.76,362.87,Single-ply,SBD,M
Boys,82.5,1,Parker Jennings,Hallsville,78.2,224.53,136.08,226.8,587.4,Single-ply,SBD,M
Boys,82.5,2,Jeffery Sapp,Texarkana Texas,81.74,204.12,117.93,208.65,530.7,Single-ply,SBD,M
Boys,82.5,3,Shelton Haskins,Atlanta,79.61,204.12,104.33,201.85,510.29,Single-ply,SBD,M
Boys,82.5,4,Zee Barfoot,Atlanta,80.38,185.97,127.01,185.97,498.95,Single-ply,SBD,M
Boys,82.5,5,Dylan Anderson,Hallsville,78.61,197.31,,226.8,424.11,Single-ply,SD,M
Boys,82.5,6,Jordan Alvarez,Atlanta,81.83,140.61,97.52,156.49,394.63,Single-ply,SBD,M
Boys,82.5,7,Jack Henderson,Atlanta,81.37,138.35,83.91,142.88,365.14,Single-ply,SBD,M
Boys,82.5,8,Jacob Reeves,Waskom,77.34,147.42,72.57,142.88,362.87,Single-ply,SBD,M
Boys,82.5,9,Martin Figueroa,Hallsville,82.05,,102.06,185.97,288.03,Single-ply,BD,M
Boys,90,1,Nick Cooper,Atlanta,85,242.67,138.35,240.4,621.42,Single-ply,SBD,M
Boys,90,2,Chris Arnold,Texarkana Texas,89.54,226.8,108.86,242.67,578.33,Single-ply,SBD,M
Boys,90,3,Jonathan Allen,Texarkana Texas,89.04,226.8,122.47,215.46,564.72,Single-ply,SBD,M
Boys,90,4,Brad West,Carthage,84.46,188.24,108.86,199.58,496.68,Single-ply,SBD,M
Boys,90,5,Nate Irving,Waskom,82.69,176.9,102.06,185.97,464.93,Single-ply,SBD,M
Boys,90,6,Eduardo Rasberry,Hallsville,89.36,172.37,97.52,192.78,462.66,Single-ply,SBD,M
Boys,90,7,James Nelson,Hallsville,89.81,170.1,92.99,199.58,462.66,Single-ply,SBD,M
Boys,90,8,Branson Emerson,Hallsville,84.37,167.83,97.52,195.04,460.4,Single-ply,SBD,M
Boys,90,9,Trey Clayton,Atlanta,89.22,158.76,95.25,154.22,408.23,Single-ply,SBD,M
Boys,90,10,Jacoby Rogers,Atlanta,89.72,145.15,99.79,163.29,408.23,Single-ply,SBD,M
Boys,90,11,Brett Parks,Hallsville,84.41,154.22,88.45,161.03,403.7,Single-ply,SBD,M
Boys,90,12,Sheldon Powell,Atlanta,83.1,124.74,86.18,158.76,369.68,Single-ply,SBD,M
Boys,90,13,Kingrey Sullens,Hallsville,89.4,199.58,,165.56,365.14,Single-ply,SD,M
Boys,90,14,Colton Moore,Waskom,87.77,108.86,70.31,140.61,319.78,Single-ply,SBD,M
Boys,100,1,Da'shawn Harris,Texarkana Texas,99.25,235.87,131.54,210.92,578.33,Single-ply,SBD,M
Boys,100,2,Dejontae Harper,Texarkana Texas,92.99,238.14,111.13,210.92,560.19,Single-ply,SBD,M
Boys,100,3,Mykel Gates,Carthage,94.89,204.12,111.13,238.14,553.38,Single-ply,SBD,M
Boys,100,4,Tristan Allen,Atlanta,97.7,172.37,117.93,233.6,523.9,Single-ply,SBD,M
Boys,100,5,Ethan Mauldin,Atlanta,93.26,197.31,106.59,195.04,498.95,Single-ply,SBD,M
Boys,100,6,Peyton Bickhem,Carthage,96.71,149.69,97.52,172.37,419.57,Single-ply,SBD,M
Boys,100,7,Hunter Gauger,Carthage,96.34,120.2,106.59,183.7,410.5,Single-ply,SBD,M
Boys,100,8,Colton French,Atlanta,97.79,167.83,88.45,151.95,408.23,Single-ply,SBD,M
Boys,100,9,Luis Acosta,Hallsville,99.79,145.15,95.25,165.56,405.97,Single-ply,SBD,M
Boys,100,10,Josh Wiley,Atlanta,95.35,151.95,95.25,154.22,401.43,Single-ply,SBD,M
Boys,100,11,Cody Rogers,Hallsville,99.74,115.67,90.72,165.56,371.95,Single-ply,SBD,M
Boys,100,12,Tanner Koenig,Hallsville,98.43,124.74,56.7,133.81,315.25,Single-ply,SBD,M
Boys,110,1,Landon Simmons,Atlanta,109.63,260.82,154.22,251.74,666.78,Single-ply,SBD,M
Boys,110,2,Kenneth Mohl,Hallsville,108.64,235.87,147.42,213.19,596.47,Single-ply,SBD,M
Boys,110,3,Keyuntea Kinney,Atlanta,105.73,215.46,136.08,238.14,589.67,Single-ply,SBD,M
Boys,110,4,James Ebarb,Carthage,109.18,172.37,120.2,199.58,492.15,Single-ply,SBD,M
Boys,110,5,Tanner Morris,Hallsville,105.41,183.7,104.33,176.9,464.93,Single-ply,SBD,M
Boys,110,6,Randy Jones,Hallsville,107.55,163.29,90.72,185.97,439.98,Single-ply,SBD,M
Boys,110,7,Austin Gray,Carthage,101.88,170.1,97.52,170.1,437.72,Single-ply,SBD,M
Boys,125,1,James Tarantino,Texarkana Texas,110.31,238.14,129.27,222.26,589.67,Single-ply,SBD,M
Boys,125,2,Tanner Duke,Atlanta,116.21,226.8,122.47,210.92,560.19,Single-ply,SBD,M
Boys,125,3,Cecil Johson,Hallsville,112.54,217.72,108.86,213.19,539.77,Single-ply,SBD,M
Boys,125,4,Elian Bustos,Texarkana Texas,116.66,204.12,113.4,204.12,521.63,Single-ply,SBD,M
Boys,125,5,Tanner Elliott,Carthage,120.66,208.65,102.06,210.92,521.63,Single-ply,SBD,M
Boys,125,6,Mitch Hardaway,Atlanta,120.02,197.31,102.06,195.04,494.42,Single-ply,SBD,M
Boys,125,7,Antonio Ortiz,Hallsville,121.7,204.12,117.93,165.56,487.61,Single-ply,SBD,M
Boys,125,8,Jacoby Hawkins,Carthage,120.47,172.37,140.61,170.1,483.08,Single-ply,SBD,M
Boys,125,9,Kam Luster,Waskom,124.01,192.78,106.59,183.7,483.08,Single-ply,SBD,M
Boys,125,10,Hunter Hudson,Hallsville,116.26,163.29,113.4,195.04,471.74,Single-ply,SBD,M
Boys,125,11,Dusty Williams,Atlanta,120.38,163.29,113.4,158.76,435.45,Single-ply,SBD,M
Boys,125,12,Wyatt Ash,Waskom,117.07,122.47,77.11,163.29,362.87,Single-ply,SBD,M
Boys,125+,1,Dylan Raley,Texarkana Texas,136.62,244.94,142.88,263.08,650.91,Single-ply,SBD,M
Boys,125+,2,Eric Nard,Texarkana Texas,143.43,274.42,138.35,233.6,646.37,Single-ply,SBD,M
Boys,125+,3,Dillon Ebarb,Carthage,135.99,181.44,113.4,188.24,483.08,Single-ply,SBD,M
Boys,125+,4,Andrew Greear,Hallsville,139.48,156.49,117.93,190.51,464.93,Single-ply,SBD,M
Boys,125+,5,Casey Jones,Carthage,129.91,158.76,111.13,183.7,453.59,Single-ply,SBD,M
