Division,WeightClassKg,Place,Name,Team,BodyweightKg,Best3SquatKg,Best3BenchKg,Best3DeadliftKg,TotalKg,Equipment,Event,Sex
Boys,52,1,Milthon Torres,Nacogdoches,46.72,113.4,63.5,113.4,290.3,Single-ply,SBD,M
Boys,56,1,Sonny Simmons,Huntington,53.52,95.25,58.97,122.47,276.69,Single-ply,SBD,M
Boys,56,2,Terrell Finley,Diboll,53.98,117.93,54.43,92.99,265.35,Single-ply,SBD,M
Boys,56,3,Tyrell Pinner,Chireno,55.34,92.99,61.23,99.79,254.01,Single-ply,SBD,M
Boys,56,4,CJ Cassar,Huntington,53.98,77.11,43.09,79.38,199.58,Single-ply,SBD,M
Boys,67.5,1,Oscar Molina,Chireno,66.22,156.49,86.18,192.78,435.45,Single-ply,SBD,M
Boys,67.5,2,Drake Willhite,Nacogdoches,64.86,147.42,97.52,165.56,410.5,Single-ply,SBD,M
Boys,67.5,3,Luis Landaverde,San Augustine,65.32,138.35,95.25,142.88,376.48,Single-ply,SBD,M
Boys,67.5,4,Brandon Simmons,Huntington,62.14,108.86,,,108.86,Single-ply,S,M
Boys,67.5,DQ,Victor Ayala,Diboll,64.41,131.54,77.11,142.88,,Single-ply,SBD,M
Boys,75,1,Deandre Bagley,Lufkin,73.48,151.95,102.06,181.44,435.45,Single-ply,SBD,M
Boys,75,2,Tyler Dill,Nacogdoches,73.03,127.01,81.65,165.56,374.21,Single-ply,SBD,M
Boys,75,3,Zachary Garcia,San Augustine,68.04,142.88,65.77,147.42,356.07,Single-ply,SBD,M
Boys,75,4,Carlos Johnson,San Augustine,73.48,129.27,56.7,147.42,333.39,Single-ply,SBD,M
Boys,75,5,Tre Grant,Lufkin,74.84,138.35,,,138.35,Single-ply,S,M
Boys,75,6,Trey McDaniel,Lufkin,71.67,131.54,,,131.54,Single-ply,S,M
Boys,82.5,1,Julian Martinez,Diboll,75.3,190.51,142.88,199.58,532.97,Single-ply,SBD,M
Boys,82.5,2,Gavin Murr,San Augustine,78.02,195.04,108.86,204.12,508.02,Single-ply,SBD,M
Boys,82.5,3,Christian Arthur,Lufkin,81.65,172.37,108.86,208.65,489.88,Single-ply,SBD,M
Boys,82.5,4,Brennon Singleton,Huntington,79.83,167.83,102.06,185.97,455.86,Single-ply,SBD,M
Boys,82.5,5,Lucky Kponi,Lufkin,77.11,167.83,97.52,181.44,446.79,Single-ply,SBD,M
Boys,82.5,6,Adrian Reyes,Diboll,75.3,158.76,83.91,174.63,417.3,Single-ply,SBD,M
Boys,82.5,7,Preston Loggins,Huntington,82.1,192.78,,,192.78,Single-ply,S,M
Boys,90,1,DaRyan Williams,Nacogdoches,88,251.74,120.2,226.8,598.74,Single-ply,SBD,M
Boys,90,2,D'Amiro Murphy,Lufkin,86.64,222.26,145.15,224.53,591.94,Single-ply,SBD,M
Boys,90,3,Lucio Monroy,Diboll,87.54,208.65,131.54,226.8,566.99,Single-ply,SBD,M
Boys,90,4,Jesse Cortes,San Augustine,87.09,219.99,111.13,226.8,557.92,Single-ply,SBD,M
Boys,90,5,Brady Jordan,Diboll,83.91,210.92,111.13,204.12,526.17,Single-ply,SBD,M
Boys,90,6,Isaiah Phillips,Lufkin,82.55,181.44,111.13,222.26,514.83,Single-ply,SBD,M
Boys,90,7,A'traviaun Woods,Lufkin,85.28,188.24,104.33,204.12,496.68,Single-ply,SBD,M
Boys,90,8,Gerardo Rojas,Diboll,89.36,179.17,108.86,179.17,467.2,Single-ply,SBD,M
Boys,90,9,Jesus Gonzalez,Nacogdoches,86.18,172.37,72.57,183.7,428.64,Single-ply,SBD,M
Boys,90,10,Tony Boykin,Lufkin,89.72,,97.52,181.44,278.96,Single-ply,BD,M
Boys,90,11,Jimarion Horace,Lufkin,83.73,154.22,,,154.22,Single-ply,S,M
Boys,90,DQ,Jackson Treadwell,Lufkin,83.91,145.15,,,,Single-ply,SBD,M
Boys,90,DQ,Hayden McEleroy,Diboll,88,183.7,95.25,181.44,,Single-ply,SBD,M
Boys,100,1,Stephon Adams-Woodson,Nacogdoches,98.43,251.74,120.2,217.72,589.67,Single-ply,SBD,M
Boys,100,2,Cole Seamen,Diboll,93.44,199.58,124.74,201.85,526.17,Single-ply,SBD,M
Boys,100,3,Zykee Allen,Lufkin,94.35,154.22,104.33,201.85,460.4,Single-ply,SBD,M
Boys,100,4,Antion Lopez,Nacogdoches,90.26,181.44,97.52,156.49,435.45,Single-ply,SBD,M
Boys,100,5,Brandon Rogers,Huntington,96.16,149.69,90.72,181.44,421.84,Single-ply,SBD,M
Boys,110,1,March Thomas,Lufkin,108.23,254.01,176.9,240.4,671.32,Single-ply,SBD,M
Boys,110,2,DeSavion Crane,San Augustine,106.14,256.28,142.88,249.48,648.64,Single-ply,SBD,M
Boys,110,3,Zion Lewis,Lufkin,109.32,204.12,124.74,242.67,571.53,Single-ply,SBD,M
Boys,110,4,Jose Acevedo,Diboll,106.14,215.46,115.67,192.78,523.9,Single-ply,SBD,M
Boys,110,5,Albert Urbinia,Diboll,107.5,183.7,113.4,195.04,492.15,Single-ply,SBD,M
Boys,110,6,T Thedford,Nacogdoches,108.41,195.04,113.4,181.44,489.88,Single-ply,SBD,M
Boys,110,7,Tyler Crawford,Huntington,100.7,147.42,74.84,147.42,369.68,Single-ply,SBD,M
Boys,110,8,Bryson Wilson,Lufkin,105.69,174.63,102.06,,276.69,Single-ply,SB,M
Boys,125,1,Daniel Zarzosa,Diboll,123.38,285.76,149.69,267.62,703.07,Single-ply,SBD,M
Boys,125,2,Jeff Dover,Diboll,121.56,285.76,142.88,258.55,687.19,Single-ply,SBD,M
Boys,125,3,Ben Whitaker,Nacogdoches,119.75,238.14,138.35,176.9,553.38,Single-ply,SBD,M
Boys,125,4,Quynton Cole,Lufkin,111.13,190.51,117.93,238.14,546.58,Single-ply,SBD,M
Boys,125,5,Jamal Arthur,Lufkin,120.88,195.04,111.13,188.24,494.42,Single-ply,SBD,M
Boys,125,6,Andrew Ehrlich,Lufkin,116.12,176.9,115.67,188.24,480.81,Single-ply,SBD,M
Boys,125,7,Dj Collins,Lufkin,109.86,172.37,,,172.37,Single-ply,S,M
Boys,125+,1,Carl Williams,Lufkin,136.08,263.08,147.42,276.69,687.19,Single-ply,SBD,M
Boys,125+,2,Harrison Gibbs,Nacogdoches,128.82,226.8,102.06,226.8,555.65,Single-ply,SBD,M
Boys,125+,3,Brandon Wilson,Lufkin,140.61,197.31,124.74,190.51,512.56,Single-ply,SBD,M
Boys,125+,4,Andrew Culpepper,Huntington,151.05,204.12,113.4,183.7,501.22,Single-ply,SBD,M
