Division,WeightClassKg,Place,Name,Team,BodyweightKg,Best3SquatKg,Best3BenchKg,Best3DeadliftKg,TotalKg,Equipment,Event,Sex
Boys,52,1,Jordan Garcia,Slaton,49.08,102.06,52.16,131.54,285.76,Single-ply,SBD,M
Boys,52,2,Dalton Walker,Ranger,51.53,106.59,65.77,108.86,281.23,Single-ply,SBD,M
Boys,56,1,Omar Alonso,Snyder,55.43,165.56,92.99,161.03,419.57,Single-ply,SBD,M
Boys,56,2,Carlos Villanueva,Strawn,55.16,167.83,79.38,142.88,390.09,Single-ply,SBD,M
Boys,56,3,Caleb Floyd,Gordon,55.79,120.2,58.97,129.27,308.44,Single-ply,SBD,M
Boys,56,4,Andrew Deleon,Roscoe Collegiate,55.52,124.74,65.77,92.99,283.5,Single-ply,SBD,M
Boys,56,5,Jon Gutierrez,Ballinger,55.34,113.4,61.23,102.06,276.69,Single-ply,SBD,M
Boys,56,6,Jetli Hobdey,Roscoe Collegiate,54.34,97.52,52.16,117.93,267.62,Single-ply,SBD,M
Boys,60,1,Luke Krueger,Snyder,55.97,197.31,86.18,197.31,480.81,Single-ply,SBD,M
Boys,60,2,Santos Yanez,Slaton,59.42,156.49,83.91,158.76,399.16,Single-ply,SBD,M
Boys,60,3,Greg Williams,Snyder,58.88,158.76,79.38,145.15,383.29,Single-ply,SBD,M
Boys,60,4,Avelardo Lopez,Strawn,59.33,145.15,79.38,136.08,360.61,Single-ply,SBD,M
Boys,60,5,David McKinnon,Ballinger,59.51,129.27,65.77,129.27,324.32,Single-ply,SBD,M
Boys,60,6,Fidel Castaneda,Bangs,59.87,113.4,58.97,136.08,308.44,Single-ply,SBD,M
Boys,67.5,1,Kendal Adames,Sweetwater,66.41,147.42,90.72,176.9,415.04,Single-ply,SBD,M
Boys,67.5,2,Ali Mata,Snyder,63.87,142.88,90.72,165.56,399.16,Single-ply,SBD,M
Boys,67.5,3,Brandon Robinson,Bangs,66.86,136.08,77.11,147.42,360.61,Single-ply,SBD,M
Boys,67.5,4,Damion Wilburn,Ballinger,62.14,124.74,79.38,149.69,353.8,Single-ply,SBD,M
Boys,67.5,5,John Gonzales,Miles,64.32,120.2,79.38,149.69,349.27,Single-ply,SBD,M
Boys,67.5,6,Cameron Clement,Hermleigh,63.32,140.61,61.23,142.88,344.73,Single-ply,SBD,M
Boys,67.5,7,Jake Roberston,Hermleigh,59.92,113.4,74.84,149.69,337.93,Single-ply,SBD,M
Boys,67.5,8,Josh Sauceda,Ballinger,62.23,124.74,58.97,124.74,308.44,Single-ply,SBD,M
Boys,67.5,DQ,Jw Montgomery,Strawn,64.86,,,,,Single-ply,SBD,M
Boys,75,1,Francisco Garcia,Roscoe Collegiate,74.48,201.85,111.13,192.78,505.76,Single-ply,SBD,M
Boys,75,2,Leroy Garcia,Miles,72.85,192.78,106.59,195.04,494.42,Single-ply,SBD,M
Boys,75,3,Ivan Ruiz,Strawn,74.3,181.44,124.74,181.44,487.61,Single-ply,SBD,M
Boys,75,4,Evan Gravell,Bangs,72.21,163.29,124.74,195.04,483.08,Single-ply,SBD,M
Boys,75,5,Kyle Gault,Strawn,74.39,181.44,90.72,181.44,453.59,Single-ply,SBD,M
Boys,75,6,Tait Fullwood,Roscoe Collegiate,69.67,181.44,97.52,170.1,449.06,Single-ply,SBD,M
Boys,75,7,Alex Rubio,Snyder,72.67,174.63,104.33,154.22,433.18,Single-ply,SBD,M
Boys,75,8,Colton Messick,Hermleigh,71.21,158.76,83.91,181.44,424.11,Single-ply,SBD,M
Boys,75,9,Brian Morales,Cross Plains,73.48,154.22,92.99,158.76,405.97,Single-ply,SBD,M
Boys,75,10,Miguel Garcia,Strawn,73.39,158.76,72.57,172.37,403.7,Single-ply,SBD,M
Boys,75,11,Payden Eason,Bangs,71.76,147.42,92.99,149.69,390.09,Single-ply,SBD,M
Boys,75,12,Brett Brunson,Snyder,74.84,154.22,90.72,136.08,381.02,Single-ply,SBD,M
Boys,75,13,George Fassett,Sweetwater,74.84,129.27,68.04,158.76,356.07,Single-ply,SBD,M
Boys,75,14,Coltin Watts,Roscoe Collegiate,71.03,124.74,74.84,151.95,351.53,Single-ply,SBD,M
Boys,75,15,Mark Johnson,Miles,74.84,111.13,74.84,147.42,333.39,Single-ply,SBD,M
Boys,82.5,1,Gerardo Cabrera,Snyder,79.83,208.65,92.99,215.46,517.1,Single-ply,SBD,M
Boys,82.5,2,Gabriel Salazar,Sweetwater,77.84,172.37,115.67,208.65,496.68,Single-ply,SBD,M
Boys,82.5,3,Jj Burns,Snyder,78.29,188.24,90.72,199.58,478.54,Single-ply,SBD,M
Boys,82.5,4,Hunter Graves,Post,76.93,163.29,90.72,174.63,428.64,Single-ply,SBD,M
Boys,82.5,5,Adrian Lomas,Roscoe Collegiate,81.01,174.63,88.45,161.03,424.11,Single-ply,SBD,M
Boys,82.5,6,Tucker Barton,Hermleigh,75.02,156.49,83.91,174.63,415.04,Single-ply,SBD,M
Boys,82.5,7,Chase Crider,Gordon,81.1,149.69,97.52,158.76,405.97,Single-ply,SBD,M
Boys,82.5,8,Hunter Lawrence,Bangs,80.2,151.95,77.11,138.35,367.41,Single-ply,SBD,M
Boys,82.5,9,Michael Cobb,Hermleigh,75.02,127.01,74.84,161.03,362.87,Single-ply,SBD,M
Boys,90,1,Gavin Duncan,Strawn,85.64,181.44,92.99,192.78,467.2,Single-ply,SBD,M
Boys,90,2,Caden Cornutt,Hermleigh,87.54,158.76,99.79,165.56,424.11,Single-ply,SBD,M
Boys,90,3,Jayton Richardson,Ranger,83.91,158.76,90.72,172.37,421.84,Single-ply,SBD,M
Boys,90,4,Parker Payne,Roscoe Collegiate,88.36,149.69,97.52,174.63,421.84,Single-ply,SBD,M
Boys,90,5,Sammy Guearrero,Cross Plains,89.81,167.83,92.99,154.22,415.04,Single-ply,SBD,M
Boys,90,6,Caleb Ornalez,Ballinger,82.28,170.1,74.84,151.95,396.89,Single-ply,SBD,M
Boys,90,7,Chris Llanas,Miles,86.55,142.88,88.45,158.76,390.09,Single-ply,SBD,M
Boys,90,DQ,Blaine Goen,Gordon,88.72,,,,,Single-ply,SBD,M
Boys,100,1,Valente Perez,Post,99.43,244.94,124.74,240.4,610.08,Single-ply,SBD,M
Boys,100,2,Edgar Rodea,Gordon,93.08,238.14,129.27,183.7,551.11,Single-ply,SBD,M
Boys,100,3,Junior Lawhon,Sweetwater,95.71,213.19,136.08,199.58,548.85,Single-ply,SBD,M
Boys,100,4,Jacob Collier,Cross Plains,99.52,213.19,122.47,199.58,535.24,Single-ply,SBD,M
Boys,100,5,Brandon Lancaster,Ballinger,93.44,197.31,106.59,219.99,523.9,Single-ply,SBD,M
Boys,100,6,Alex Jaimes,Snyder,99.43,219.99,111.13,183.7,514.83,Single-ply,SBD,M
Boys,100,7,Eric Rinehart,Snyder,90.45,183.7,90.72,204.12,478.54,Single-ply,SBD,M
Boys,100,8,Austin Lara,Roscoe Collegiate,93.08,190.51,102.06,158.76,451.32,Single-ply,SBD,M
Boys,100,9,Coleton Williams,Miles,90.99,147.42,83.91,149.69,381.02,Single-ply,SBD,M
Boys,100,10,Dereck Duclos,Sweetwater,99.06,124.74,61.23,120.2,306.17,Single-ply,SBD,M
Boys,110,1,Raymond Delgado,Sweetwater,103.87,204.12,147.42,204.12,555.65,Single-ply,SBD,M
Boys,110,2,Adolph Medina,Ballinger,104.14,197.31,122.47,208.65,528.44,Single-ply,SBD,M
Boys,110,3,Hunter Wheeler,Ballinger,101.06,188.24,102.06,197.31,487.61,Single-ply,SBD,M
Boys,110,4,Joel Garcia,Roscoe Collegiate,108.41,192.78,106.59,181.44,480.81,Single-ply,SBD,M
Boys,110,5,Sawyer Barron,Ranger,105.05,195.04,106.59,172.37,474,Single-ply,SBD,M
Boys,110,6,Derrick Palacios,Sweetwater,103.87,170.1,108.86,172.37,451.32,Single-ply,SBD,M
Boys,110,7,Tracher Dugan,Hermleigh,106.78,181.44,86.18,181.44,449.06,Single-ply,SBD,M
Boys,110,8,Zack Harty,Hermleigh,99.97,181.44,79.38,174.63,435.45,Single-ply,SBD,M
Boys,110,9,Gavin Reyes,Sweetwater,104.96,142.88,102.06,181.44,426.38,Single-ply,SBD,M
Boys,110,DQ,Jacob Flores,Strawn,109.23,188.24,,,,Single-ply,SBD,M
Boys,125,1,Sean Humphrey,Snyder,123.29,303.91,179.17,249.48,732.55,Single-ply,SBD,M
Boys,125,2,Divad Briones,Ballinger,115.39,254.01,167.83,208.65,630.49,Single-ply,SBD,M
Boys,125,3,Matt Buckley,Roscoe Collegiate,110.68,244.94,140.61,222.26,607.81,Single-ply,SBD,M
Boys,125,4,Carlos Gallegos,Sweetwater,118.66,226.8,138.35,217.72,582.87,Single-ply,SBD,M
Boys,125,5,Mario Luna,Post,122.2,231.33,99.79,183.7,514.83,Single-ply,SBD,M
Boys,125,6,John Garcia,Hermleigh,121.56,181.44,106.59,181.44,469.47,Single-ply,SBD,M
Boys,125,7,Jaden Hostetter,Ballinger,117.84,156.49,92.99,145.15,394.63,Single-ply,SBD,M
Boys,125+,1,Kobe Fahntrapp,Snyder,125.1,272.16,156.49,215.46,644.1,Single-ply,SBD,M
Boys,125+,2,Josh Salas,Slaton,141.52,226.8,127.01,208.65,562.45,Single-ply,SBD,M
Boys,125+,DQ,Jeremiah Barrera,Sweetwater,133.54,238.14,,,,Single-ply,SBD,M
Boys,,DQ,Bailey Barrett,Strawn,,,,,,Single-ply,SBD,M
Boys,,DQ,Patyne Ruiz,Strawn,,,,,,Single-ply,SBD,M
Boys,,DQ,Jon Binder,Ballinger,,,,,,Single-ply,SBD,M
Boys,,DQ,Adrian Pena,Ballinger,,,,,,Single-ply,SBD,M
Boys,,DQ,Eli Carbajal,Bangs,,,,,,Single-ply,SBD,M
Boys,,DQ,Damion Garcia,Post,,,,,,Single-ply,SBD,M
Boys,,DQ,Aj Reed,Post,,,,,,Single-ply,SBD,M
Boys,,DQ,Josh Morris #2,Post,,,,,,Single-ply,SBD,M
Boys,,DQ,Tyler Phipps,Sweetwater,,,,,,Single-ply,SBD,M
Boys,,DQ,Chase Carr,Hermleigh,,,,,,Single-ply,SBD,M
