Division,WeightClassKg,Place,Name,Team,BodyweightKg,Best3SquatKg,Best3BenchKg,Best3DeadliftKg,TotalKg,Equipment,Event,Sex
Boys,56,1,Josh Lambatan,Mansfield Summit,52.16,102.06,54.43,120.2,276.69,Single-ply,SBD,M
Boys,60,1,Joseph Terrance,Mansfield Timberview,56.52,133.81,86.18,142.88,362.87,Single-ply,SBD,M
Boys,67.5,1,Darius Campbell,Red Oak,66.5,185.97,117.93,188.24,492.15,Single-ply,SBD,M
Boys,67.5,2,Brandon Blond,Mansfield Timberview,66.04,181.44,104.33,167.83,453.59,Single-ply,SBD,M
Boys,67.5,3,Garret McGuire,Cedar Hill,67.04,181.44,83.91,188.24,453.59,Single-ply,SBD,M
Boys,67.5,4,Calvin Porter,Mansfield Summit,67.04,154.22,102.06,170.1,426.38,Single-ply,SBD,M
Boys,67.5,5,Jayce Hood,Lancaster,67.04,151.95,81.65,156.49,390.09,Single-ply,SBD,M
Boys,67.5,6,Enoch Ardern,Mansfield Summit,65.95,136.08,70.31,142.88,349.27,Single-ply,SBD,M
Boys,67.5,7,Lance Burk,Mansfield Legacy,65.41,108.86,79.38,124.74,312.98,Single-ply,SBD,M
Boys,67.5,8,Marquis Kiner,Mansfield Timberview,65.23,151.95,,158.76,310.71,Single-ply,SD,M
Boys,75,1,Miracle Broussard,Cedar Hill,72.85,215.46,131.54,201.85,548.85,Single-ply,SBD,M
Boys,75,2,Marquise Foreman,Cedar Hill,71.12,188.24,117.93,195.04,501.22,Single-ply,SBD,M
Boys,75,3,Deandre Gray,Red Oak,71.94,161.03,102.06,204.12,467.2,Single-ply,SBD,M
Boys,75,4,DeQuavas Sneed,Lancaster,69.49,170.1,97.52,170.1,437.72,Single-ply,SBD,M
Boys,75,5,Aikeel Shakur,Mansfield Timberview,69.94,149.69,104.33,158.76,412.77,Single-ply,SBD,M
Boys,75,6,Keenan Houston,Mansfield Legacy,67.86,129.27,102.06,151.95,383.29,Single-ply,SBD,M
Boys,75,7,Blake Powell,Mansfield Lake Ridge,74.21,133.81,83.91,151.95,369.68,Single-ply,SBD,M
Boys,82.5,1,Noe Navejar,Mansfield Timberview,81.56,208.65,122.47,192.78,523.9,Single-ply,SBD,M
Boys,82.5,2,Steven Lucas,Mansfield Timberview,82.1,181.44,108.86,213.19,503.49,Single-ply,SBD,M
Boys,82.5,3,Greg Jackson,Cedar Hill,82.01,195.04,115.67,190.51,501.22,Single-ply,SBD,M
Boys,82.5,4,Sam Adedire,Mansfield Summit,78.2,158.76,97.52,204.12,460.4,Single-ply,SBD,M
Boys,82.5,5,David Saunders,Cedar Hill,77.84,170.1,113.4,163.29,446.79,Single-ply,SBD,M
Boys,82.5,6,Christopher Boone,Red Oak,79.74,170.1,111.13,163.29,444.52,Single-ply,SBD,M
Boys,90,1,Sir Charles Miles-Frost,Lancaster,86.18,222.26,136.08,210.92,569.26,Single-ply,SBD,M
Boys,90,2,Xavier Hall,Cedar Hill,87.45,219.99,102.06,217.72,539.77,Single-ply,SBD,M
Boys,90,3,Landon Maston,Cedar Hill,88.18,219.99,106.59,213.19,539.77,Single-ply,SBD,M
Boys,90,4,Isaac Ewegbeje,Mansfield Timberview,84.64,183.7,127.01,190.51,501.22,Single-ply,SBD,M
Boys,90,5,Elliseo Ortiz,Red Oak,87.91,183.7,142.88,170.1,496.68,Single-ply,SBD,M
Boys,90,6,Zach Willis,Mansfield Timberview,86.27,188.24,106.59,181.44,476.27,Single-ply,SBD,M
Boys,90,7,Cody Pettit,Mansfield Summit,87.18,174.63,97.52,176.9,449.06,Single-ply,SBD,M
Boys,90,8,Micheal Allison,Mansfield Summit,83.64,147.42,92.99,176.9,417.3,Single-ply,SBD,M
Boys,90,9,Larry Jones,Mansfield Timberview,84.73,213.19,115.67,,328.85,Single-ply,SB,M
Boys,90,10,Kolbi McGary,Cedar Hill,88.27,195.04,102.06,,297.1,Single-ply,SB,M
Boys,100,1,Jordan Davison,Lancaster,92.35,170.1,124.74,188.24,483.08,Single-ply,SBD,M
Boys,100,2,Addison Bob,Lancaster,93.53,181.44,97.52,197.31,476.27,Single-ply,SBD,M
Boys,100,3,Brock Houston,Red Oak,98.25,170.1,104.33,183.7,458.13,Single-ply,SBD,M
Boys,100,4,Nick Posadas,Red Oak,97.34,174.63,92.99,156.49,424.11,Single-ply,SBD,M
Boys,110,1,Rod McClain,Mansfield Lake Ridge,107.59,226.8,124.74,208.65,560.19,Single-ply,SBD,M
Boys,110,2,Bronson Lincks,Red Oak,100.33,224.53,131.54,192.78,548.85,Single-ply,SBD,M
Boys,110,3,DJ Brown,Cedar Hill,106.59,226.8,133.81,183.7,544.31,Single-ply,SBD,M
Boys,110,4,Garret McCord,Red Oak,102.15,192.78,156.49,192.78,542.04,Single-ply,SBD,M
Boys,110,5,Donavan Evans,Red Oak,105.51,210.92,120.2,204.12,535.24,Single-ply,SBD,M
Boys,110,6,Cameron Clayton,Lancaster,108.41,192.78,129.27,210.92,532.97,Single-ply,SBD,M
Boys,110,7,Abdulazeez Yussuf,Mansfield Summit,108.23,192.78,120.2,210.92,523.9,Single-ply,SBD,M
Boys,110,8,Desonio Powell,Lancaster,109.5,170.1,133.81,210.92,514.83,Single-ply,SBD,M
Boys,110,9,Derrick Salter,Mansfield Summit,109.77,197.31,106.59,204.12,508.02,Single-ply,SBD,M
Boys,110,10,Brown Jacob,Mansfield Timberview,103.78,185.97,111.13,190.51,487.61,Single-ply,SBD,M
Boys,110,11,Juan Vaqera,Mansfield Lake Ridge,103.6,167.83,102.06,190.51,460.4,Single-ply,SBD,M
Boys,110,12,Sherman Bowen,Lancaster,106.59,165.56,102.06,188.24,455.86,Single-ply,SBD,M
Boys,125,1,James Harrison,Lancaster,124.56,219.99,140.61,226.8,587.4,Single-ply,SBD,M
Boys,125,2,Ben Calhoun,Mansfield Timberview,114.49,204.12,140.61,188.24,532.97,Single-ply,SBD,M
Boys,125,3,Donovan Runnels,Cedar Hill,118.02,204.12,136.08,188.24,528.44,Single-ply,SBD,M
Boys,125,4,Justin Nash,Mansfield Timberview,123.2,213.19,122.47,181.44,517.1,Single-ply,SBD,M
Boys,125,5,Ryan Collinsworth,Red Oak,119.57,172.37,120.2,204.12,496.68,Single-ply,SBD,M
Boys,125,6,Andrew Colon,Mansfield Lake Ridge,119.84,156.49,120.2,215.46,492.15,Single-ply,SBD,M
Boys,125,7,Reginald Thomas,Lancaster,121.29,183.7,113.4,183.7,480.81,Single-ply,SBD,M
Boys,125,8,Byron Buckley,Mansfield Timberview,114.58,167.83,117.93,176.9,462.66,Single-ply,SBD,M
Boys,125,9,Izaac Banuelos,Mansfield Timberview,116.12,167.83,104.33,181.44,453.59,Single-ply,SBD,M
Boys,125,10,Derrick Brown,Lancaster,112.04,147.42,97.52,181.44,426.38,Single-ply,SBD,M
Boys,125+,1,Clifton Coffey,Cedar Hill,166.11,294.84,167.83,256.28,718.94,Single-ply,SBD,M
Boys,125+,2,Terrence Bell,Mansfield Legacy,126.82,201.85,149.69,204.12,555.65,Single-ply,SBD,M
Boys,125+,3,Maydrain Lowe,Red Oak,128.73,197.31,106.59,183.7,487.61,Single-ply,SBD,M
