Division,WeightClassKg,Place,Name,Team,BodyweightKg,Best3SquatKg,Best3BenchKg,Best3DeadliftKg,TotalKg,Equipment,Event,Sex
Boys,52,1,Bradley Salinas,Brownsville Porter,51.48,127.01,61.23,145.15,333.39,Single-ply,SBD,M
Boys,52,2,Mario Perez,Weslaco,43.64,90.72,52.16,95.25,238.14,Single-ply,SBD,M
Boys,56,1,Joseph Serino,Brownsville Hanna,55.52,165.56,95.25,183.7,444.52,Single-ply,SBD,M
Boys,56,2,Eric Capistran,Brownsville Veterans Memorial,53.93,131.54,79.38,147.42,358.34,Single-ply,SBD,M
Boys,56,3,CJ Medina,Brownsville Hanna,52.25,129.27,65.77,136.08,331.12,Single-ply,SBD,M
Boys,56,4,Jaime Martinez,Mission,55.11,104.33,70.31,129.27,303.91,Single-ply,SBD,M
Boys,56,5,Aaron Gonzales,Lyford,53.48,120.2,52.16,127.01,299.37,Single-ply,SBD,M
Boys,60,1,Jose Alvarado,Brownsville Lopez,55.93,244.94,124.74,213.19,582.87,Single-ply,SBD,M
Boys,60,2,Ricky Cuellar,Brownsville Pace,59.78,197.31,120.2,176.9,494.42,Single-ply,SBD,M
Boys,60,3,Leo Alaniz,Brownsville Lopez,56.52,188.24,104.33,190.51,483.08,Single-ply,SBD,M
Boys,60,4,Felix Rizo,Brownsville Pace,59.87,183.7,117.93,179.17,480.81,Single-ply,SBD,M
Boys,60,5,Marcos Chavez,Lyford,59.19,156.49,92.99,192.78,442.25,Single-ply,SBD,M
Boys,60,6,David Mireles,Brownsville Hanna,57.38,111.13,68.04,136.08,315.25,Single-ply,SBD,M
Boys,67.5,1,Tyler Bush,Rio Hondo,65.36,183.7,124.74,195.04,503.49,Single-ply,SBD,M
Boys,67.5,2,Guillermo Estrada,Brownsville Porter,65.77,185.97,104.33,192.78,483.08,Single-ply,SBD,M
Boys,67.5,3,Christian Gamez,Brownsville Lopez,64.09,199.58,106.59,174.63,480.81,Single-ply,SBD,M
Boys,67.5,4,Nick De Leon,Brownsville Lopez,60.37,190.51,97.52,188.24,476.27,Single-ply,SBD,M
Boys,67.5,5,Rudy Garcia,Brownsville Hanna,65.63,183.7,108.86,183.7,476.27,Single-ply,SBD,M
Boys,67.5,6,Cesar Cordova,Mission,67.04,161.03,113.4,170.1,444.52,Single-ply,SBD,M
Boys,67.5,7,Victor Rodriguez,Mission,61.28,156.49,92.99,161.03,410.5,Single-ply,SBD,M
Boys,67.5,8,Eli Ramirez,Port Isabel,60.51,156.49,86.18,158.76,401.43,Single-ply,SBD,M
Boys,67.5,9,Adrian Guerrero,Brownsville Porter,60.06,138.35,81.65,165.56,385.55,Single-ply,SBD,M
Boys,67.5,10,Rene Juarez,Weslaco,62.46,142.88,70.31,156.49,369.68,Single-ply,SBD,M
Boys,67.5,DQ,Jose Ortiz,Los Fresnos,66.36,192.78,,,,Single-ply,SBD,M
Boys,67.5,DQ,Hugo Salas,Brownsville Lopez,66.77,,,,,Single-ply,SBD,M
Boys,67.5,DQ,Roberto Martínez,Mission,63.41,188.24,,,,Single-ply,SBD,M
Boys,75,1,John Salazar,Los Fresnos,73.75,217.72,138.35,240.4,596.47,Single-ply,SBD,M
Boys,75,2,Ramses Ramos,Brownsville Lopez,73.8,249.48,108.86,238.14,596.47,Single-ply,SBD,M
Boys,75,3,Leo Diaz,Brownsville Lopez,73.71,233.6,127.01,204.12,564.72,Single-ply,SBD,M
Boys,75,4,Marco Fonseca,Los Fresnos,74.21,213.19,122.47,226.8,562.45,Single-ply,SBD,M
Boys,75,5,Dominic Ramos,Rio Hondo,71.53,210.92,140.61,192.78,544.31,Single-ply,SBD,M
Boys,75,6,Mike Adameit,Lyford,74.39,215.46,117.93,208.65,542.04,Single-ply,SBD,M
Boys,75,7,Gilbert Alejos,Los Fresnos,73.35,190.51,136.08,208.65,535.24,Single-ply,SBD,M
Boys,75,8,Jacob Sanchez,Lyford,73.21,197.31,102.06,195.04,494.42,Single-ply,SBD,M
Boys,75,9,Brian Chavez,Port Isabel,73.07,176.9,111.13,192.78,480.81,Single-ply,SBD,M
Boys,75,10,Juan Gallegos,Brownsville Pace,71.03,165.56,108.86,165.56,439.98,Single-ply,SBD,M
Boys,75,11,Jose Garza,Brownsville Porter,73.16,154.22,83.91,195.04,433.18,Single-ply,SBD,M
Boys,75,12,Jose Salinas,Brownsville Pace,67.31,151.95,86.18,183.7,421.84,Single-ply,SBD,M
Boys,75,13,Jorge Castillo,Brownsville Pace,74.84,142.88,90.72,156.49,390.09,Single-ply,SBD,M
Boys,75,14,Robert Maldonado,Port Isabel,70.22,142.88,81.65,147.42,371.95,Single-ply,SBD,M
Boys,82.5,1,Gio Martinez,Brownsville Porter,80.51,235.87,142.88,272.16,650.91,Single-ply,SBD,M
Boys,82.5,2,Pablo Garza,Brownsville Pace,82.1,240.4,158.76,249.48,648.64,Single-ply,SBD,M
Boys,82.5,3,Gaston Castellanos,Rio Hondo,81.01,226.8,136.08,215.46,578.33,Single-ply,SBD,M
Boys,82.5,4,John Acuna,Brownsville Porter,76.61,210.92,124.74,208.65,544.31,Single-ply,SBD,M
Boys,82.5,5,Frank Moreno,Lyford,78.11,183.7,124.74,233.6,542.04,Single-ply,SBD,M
Boys,82.5,6,Jesus Guatzozon,Port Isabel,79.29,192.78,122.47,215.46,530.7,Single-ply,SBD,M
Boys,82.5,7,Daniel Balderrama,Los Fresnos,78.83,201.85,120.2,195.04,517.1,Single-ply,SBD,M
Boys,82.5,8,Dagan Wise-Herring,Port Isabel,77.88,188.24,113.4,204.12,505.76,Single-ply,SBD,M
Boys,82.5,9,Israel Lozano,Brownsville Rivera,77.75,192.78,95.25,192.78,480.81,Single-ply,SBD,M
Boys,82.5,10,Dominic Trolani,Brownsville Veterans Memorial,80.38,176.9,102.06,195.04,474,Single-ply,SBD,M
Boys,82.5,11,Luis Cisneros,Brownsville Rivera,74.98,161.03,129.27,179.17,469.47,Single-ply,SBD,M
Boys,82.5,12,Zeke Lozano,Weslaco,81.28,156.49,113.4,183.7,453.59,Single-ply,SBD,M
Boys,82.5,13,Leo Hinojosa,Brownsville Porter,80.38,147.42,90.72,170.1,408.23,Single-ply,SBD,M
Boys,82.5,14,Erick Rangel,La Feria,81.1,142.88,83.91,129.27,356.07,Single-ply,SBD,M
Boys,82.5,15,Ryan Mesa,Raymondville,82.05,102.06,52.16,120.2,274.42,Single-ply,SBD,M
Boys,82.5,DQ,José Saldaña,La Feria,82.01,215.46,108.86,,,Single-ply,SBD,M
Boys,82.5,DQ,Harley Vasquez,Lyford,81.92,102.06,,,,Single-ply,SBD,M
Boys,82.5,DQ,JC Pedraza,Weslaco,76.84,176.9,90.72,,,Single-ply,SBD,M
Boys,82.5,DQ,Israel Morales,Weslaco,79.24,,,,,Single-ply,SBD,M
Boys,82.5,DQ,Irvin Castro,La Feria,80.2,154.22,,,,Single-ply,SBD,M
Boys,82.5,DQ,Eddie Galvan,Brownsville Hanna,81.83,,,,,Single-ply,SBD,M
Boys,90,1,Jesse Luna,Brownsville Lopez,89.81,256.28,129.27,258.55,644.1,Single-ply,SBD,M
Boys,90,2,Angel Rodríguez,Rio Hondo,88.99,249.48,170.1,215.46,635.03,Single-ply,SBD,M
Boys,90,3,Justin Flores,Rio Hondo,88.31,238.14,147.42,204.12,589.67,Single-ply,SBD,M
Boys,90,5,Jose Ramirez,Brownsville Hanna,89.09,224.53,147.42,210.92,582.87,Single-ply,SBD,M
Boys,90,6,Jonas Garza,Brownsville Pace,87.45,215.46,129.27,226.8,571.53,Single-ply,SBD,M
Boys,90,7,Juan Garza,Los Fresnos,87,192.78,138.35,222.26,553.38,Single-ply,SBD,M
Boys,90,8,Sebastian Diaz,Brownsville Hanna,87.63,208.65,131.54,213.19,553.38,Single-ply,SBD,M
Boys,90,9,Daniel Valdez,Brownsville Porter,87.41,210.92,104.33,235.87,551.11,Single-ply,SBD,M
Boys,90,10,Adrian Diaz,Brownsville Hanna,85.14,208.65,115.67,219.99,544.31,Single-ply,SBD,M
Boys,90,11,Joel Sanchez,Brownsville Rivera,89.31,215.46,111.13,201.85,528.44,Single-ply,SBD,M
Boys,90,12,Steven Medrano,La Feria,87.04,195.04,129.27,195.04,519.36,Single-ply,SBD,M
Boys,90,13,Mark Zamorano,Los Fresnos,88.36,192.78,129.27,183.7,505.76,Single-ply,SBD,M
Boys,90,14,Juan Rodriguez,Mission,86.68,174.63,108.86,219.99,503.49,Single-ply,SBD,M
Boys,90,15,Jose Rangel,La Villa,89.63,197.31,97.52,204.12,498.95,Single-ply,SBD,M
Boys,90,16,Pablo Iracheta,Brownsville Pace,89.63,188.24,108.86,179.17,476.27,Single-ply,SBD,M
Boys,90,17,Freddy Lozano,La Feria,86.32,170.1,106.59,190.51,467.2,Single-ply,SBD,M
Boys,90,18,Nathan Morales,La Feria,87.82,151.95,147.42,161.03,460.4,Single-ply,SBD,M
Boys,90,19,Emmanuel Cepeda,Lyford,86.77,183.7,95.25,147.42,426.38,Single-ply,SBD,M
Boys,90,20,Jesse Ramos,Weslaco,85.64,151.95,102.06,161.03,415.04,Single-ply,SBD,M
Boys,90,21,George Garcia,La Feria,87.72,156.49,92.99,154.22,403.7,Single-ply,SBD,M
Boys,90,22,Leo Pena,Weslaco,86.36,138.35,70.31,136.08,344.73,Single-ply,SBD,M
Boys,90,DQ,Eric Gutierrez,Mission,88.72,,,,,Single-ply,SBD,M
Boys,90,DQ,Rey Salazar,Brownsville Veterans Memorial,89.45,,,,,Single-ply,SBD,M
Boys,100,1,Daniel Ramos,Brownsville Lopez,97.39,288.03,165.56,240.4,694,Single-ply,SBD,M
Boys,100,2,Omar Salazar,Brownsville Lopez,91.08,254.01,124.74,238.14,616.89,Single-ply,SBD,M
Boys,100,3,Rudy Tijerina,Raymondville,98.07,215.46,131.54,215.46,562.45,Single-ply,SBD,M
Boys,100,4,Arturo Alvarado,La Feria,94.57,226.8,136.08,197.31,560.19,Single-ply,SBD,M
Boys,90,4,David Cardenas,Brownsville Pace,89.9,226.8,127.01,235.87,589.67,Single-ply,SBD,M
Boys,100,5,Brandon Esteves,Brownsville Hanna,91.04,204.12,127.01,219.99,551.11,Single-ply,SBD,M
Boys,100,6,Adrian Loyde,Brownsville Hanna,95.62,213.19,124.74,204.12,542.04,Single-ply,SBD,M
Boys,100,7,Jacob Zepeda,Raymondville,90.67,183.7,124.74,208.65,517.1,Single-ply,SBD,M
Boys,100,DQ,Christian Godenez,Brownsville Lopez,99.79,,,,,Single-ply,SBD,M
Boys,100,DQ,Miguel Rendon,Mission,90.08,,,,,Single-ply,SBD,M
Boys,100,DQ,Luis Molina,Brownsville Veterans Memorial,96.39,199.58,,,,Single-ply,SBD,M
Boys,100,DQ,Jake Martinez,Rio Hondo,99.47,247.21,156.49,,,Single-ply,SBD,M
Boys,110,1,Adrien Martinez,Brownsville Hanna,107.05,297.1,131.54,229.06,657.71,Single-ply,SBD,M
Boys,110,2,Eli Acuna,Brownsville Pace,101.6,226.8,151.95,226.8,605.55,Single-ply,SBD,M
Boys,110,3,Lupe Garcia,Rio Hondo,105.6,222.26,111.13,238.14,571.53,Single-ply,SBD,M
Boys,110,4,Jose Ayala,Brownsville Veterans Memorial,101.2,210.92,117.93,226.8,555.65,Single-ply,SBD,M
Boys,110,5,Ruben Balboa,Brownsville Pace,103.65,219.99,136.08,183.7,539.77,Single-ply,SBD,M
Boys,110,6,Marco de la Torre,Weslaco,109.77,204.12,129.27,201.85,535.24,Single-ply,SBD,M
Boys,110,7,Nestor Ramirez,Brownsville Porter,100.38,208.65,127.01,172.37,508.02,Single-ply,SBD,M
Boys,110,8,Misael Garcia,Brownsville Veterans Memorial,107.41,188.24,136.08,183.7,508.02,Single-ply,SBD,M
Boys,110,9,Jose Zapata,Brownsville Veterans Memorial,100.02,185.97,92.99,197.31,476.27,Single-ply,SBD,M
Boys,110,10,Angel Pena,Brownsville Rivera,108.95,188.24,99.79,185.97,474,Single-ply,SBD,M
Boys,110,11,Gabriel Morales,La Feria,105.23,181.44,108.86,165.56,455.86,Single-ply,SBD,M
Boys,110,12,Luis Suarez,Port Isabel,101.56,183.7,90.72,174.63,449.06,Single-ply,SBD,M
Boys,110,13,Jesus Segura,Weslaco,104.55,167.83,99.79,154.22,421.84,Single-ply,SBD,M
Boys,110,14,Joey Ramirez,La Villa,102.29,147.42,108.86,124.74,381.02,Single-ply,SBD,M
Boys,110,DQ,Fernando Martinez,Brownsville Hanna,100.74,158.76,,,,Single-ply,SBD,M
Boys,125,1,Gonzalo Alegria,La Feria,120.16,308.44,147.42,242.67,698.53,Single-ply,SBD,M
Boys,125,2,Jonathan Ojeda,Brownsville Pace,116.26,285.76,145.15,240.4,671.32,Single-ply,SBD,M
Boys,125,3,Austin Sulewski,Brownsville Pace,124.1,272.16,174.63,215.46,662.24,Single-ply,SBD,M
Boys,125,4,Justin Garza,Brownsville Rivera,122.29,290.3,120.2,224.53,635.03,Single-ply,SBD,M
Boys,125,5,Rogelio Perez,Rio Hondo,113.35,249.48,151.95,226.8,628.23,Single-ply,SBD,M
Boys,125,6,Tristian Rodriguez,Raymondville,111.31,233.6,129.27,240.4,603.28,Single-ply,SBD,M
Boys,125,7,Troy Macias,Rio Hondo,119.07,210.92,158.76,231.33,601.01,Single-ply,SBD,M
Boys,125,8,Ian Torres,Port Isabel,112.35,226.8,133.81,229.06,589.67,Single-ply,SBD,M
Boys,125,9,Abiel Lopez,Brownsville Porter,120.56,226.8,136.08,185.97,548.85,Single-ply,SBD,M
Boys,125,10,Ivan Tejeda,La Feria,124.47,226.8,111.13,204.12,542.04,Single-ply,SBD,M
Boys,125,11,Santos Troncoso,Brownsville Rivera,117.3,154.22,124.74,163.29,442.25,Single-ply,SBD,M
Boys,125,DQ,Julio Hernandez,Brownsville Pace,122.02,,,,,Single-ply,SBD,M
Boys,125,DQ,Alex Rivera,Brownsville Pace,119.88,,,,,Single-ply,SBD,M
Boys,125,DQ,Rudy De La Torre,Weslaco,124.51,226.8,,,,Single-ply,SBD,M
Boys,125,DQ,Steven Alvarez,Mission,111.58,,,,,Single-ply,SBD,M
Boys,125+,1,Josh Trevino,Brownsville Lopez,141.52,328.85,190.51,276.69,796.05,Single-ply,SBD,M
Boys,125+,2,Justin Garcia,Lyford,133.49,272.16,161.03,235.87,669.05,Single-ply,SBD,M
Boys,125+,3,Javier Garcia #2,Brownsville Porter,134.4,219.99,129.27,183.7,532.97,Single-ply,SBD,M
Boys,125+,4,Jake Rhyner,Rio Hondo,136.8,181.44,142.88,161.03,485.34,Single-ply,SBD,M
Boys,125+,DQ,Sam Perez,Weslaco,126.23,181.44,,,,Single-ply,SBD,M
Boys,125+,DQ,Christian Castro,Brownsville Pace,136.03,,,,,Single-ply,SBD,M
Boys,125+,DQ,Jorge Torres,Raymondville,135.26,,,,,Single-ply,SBD,M
Boys,125+,DQ,Sebastian Garcia,Brownsville Hanna,132.4,249.48,147.42,,,Single-ply,SBD,M
Boys,,DQ,Jorge Cantu,Mission,,,,,,Single-ply,SBD,M
Boys,,DQ,Lou Gomez,Mission,,,,,,Single-ply,SBD,M
Boys,,DQ,Arturo Garcia,Brownsville Pace,,,,,,Single-ply,SBD,M
Boys,,DQ,Christopher Espinoza,Brownsville Pace,,,,,,Single-ply,SBD,M
Boys,,DQ,Andrew Ortega,Brownsville Pace,,,,,,Single-ply,SBD,M
