Division,WeightClassKg,Place,Name,Team,BodyweightKg,Best3SquatKg,Best3BenchKg,Best3DeadliftKg,TotalKg,Equipment,Event,Sex
Boys,52,1,Juan Duran,Lubbock Cooper,48.76,127.01,77.11,149.69,353.8,Single-ply,SBD,M
Boys,52,2,Triston Davis,Sundown,48.08,131.54,68.04,129.27,328.85,Single-ply,SBD,M
Boys,52,3,Landon Nail,Lubbock Cooper,50.58,111.13,56.7,124.74,292.57,Single-ply,SBD,M
Boys,52,4,Justin Rodriguez,Lubbock Cooper,51.48,108.86,58.97,124.74,292.57,Single-ply,SBD,M
Boys,52,5,Alex Urbano,Brownfield,46.49,65.77,52.16,104.33,222.26,Single-ply,SBD,M
Boys,52,DQ,Arturo Rodriquez,Meadow,50.8,124.74,65.77,,,Single-ply,SBD,M
Boys,56,1,Gavon Gardner,Meadow,53.3,136.08,70.31,142.88,349.27,Single-ply,SBD,M
Boys,56,2,Jose Garcia,Brownfield,55.11,122.47,79.38,136.08,337.93,Single-ply,SBD,M
Boys,56,3,Marcus Gonzales,Brownfield,54.79,102.06,54.43,113.4,269.89,Single-ply,SBD,M
Boys,56,4,Ray Aguilar,Meadow,54.43,90.72,54.43,111.13,256.28,Single-ply,SBD,M
Boys,56,DQ,Devin McKleskey,Tahoka,55.34,,,,,Single-ply,SBD,M
Boys,60,1,JD Rojas,Lubbock Roosevelt,57.15,136.08,83.91,158.76,378.75,Single-ply,SBD,M
Boys,60,2,Ryan Punchard,Lubbock Cooper,59.65,140.61,74.84,142.88,358.34,Single-ply,SBD,M
Boys,60,3,James Vasquez,Wolfforth Frenship,58.97,117.93,70.31,115.67,303.91,Single-ply,SBD,M
Boys,60,4,Gary Duran,Brownfield,59.19,108.86,68.04,122.47,299.37,Single-ply,SBD,M
Boys,67.5,1,Rafael Urias,Meadow,66.45,176.9,113.4,179.17,469.47,Single-ply,SBD,M
Boys,67.5,2,Jonathan Flores,Meadow,65.77,158.76,92.99,179.17,430.91,Single-ply,SBD,M
Boys,67.5,3,Alek Cruz,Lubbock Cooper,64.5,161.03,95.25,165.56,421.84,Single-ply,SBD,M
Boys,67.5,4,Abraham Trevino,Lubbock Cooper,66,145.15,108.86,154.22,408.23,Single-ply,SBD,M
Boys,67.5,5,Ethan Mullin,Meadow,63.73,136.08,77.11,161.03,374.21,Single-ply,SBD,M
Boys,67.5,6,Gibby Vasquez,Brownfield,66.9,129.27,90.72,154.22,374.21,Single-ply,SBD,M
Boys,67.5,7,Russell Wilson,Lubbock Roosevelt,65.09,108.86,70.31,124.74,303.91,Single-ply,SBD,M
Boys,67.5,8,Ethan Harper,Brownfield,65.77,104.33,63.5,127.01,294.84,Single-ply,SBD,M
Boys,67.5,9,Cameran Chance,Sundown,63.96,83.91,65.77,115.67,265.35,Single-ply,SBD,M
Boys,67.5,10,Quince Workman,Wolfforth Frenship,66.45,61.23,65.77,136.08,263.08,Single-ply,SBD,M
Boys,75,1,Cailer Woolam,Lubbock Cooper,74.39,215.46,136.08,242.67,594.21,Single-ply,SBD,M
Boys,75,2,Dillon Stevens,Wolfforth Frenship,73.71,176.9,99.79,197.31,474,Single-ply,SBD,M
Boys,75,3,Bj Trevino,Lubbock Cooper,73.48,181.44,99.79,181.44,462.66,Single-ply,SBD,M
Boys,75,4,Brady Tekell,Meadow,72.03,170.1,106.59,183.7,460.4,Single-ply,SBD,M
Boys,75,5,Jon Chavez,Sundown,69.85,183.7,83.91,185.97,453.59,Single-ply,SBD,M
Boys,75,6,Tycer Farmer,Lubbock Cooper,71.67,172.37,102.06,154.22,428.64,Single-ply,SBD,M
Boys,75,7,Andrew Castillo,Meadow,71.67,142.88,95.25,170.1,408.23,Single-ply,SBD,M
Boys,75,8,Kordell Baker,Tahoka,67.59,136.08,92.99,161.03,390.09,Single-ply,SBD,M
Boys,75,9,Kaleb Branton,Sundown,68.49,113.4,92.99,158.76,365.14,Single-ply,SBD,M
Boys,75,10,Daniel Aleman,Tahoka,72.57,140.61,74.84,142.88,358.34,Single-ply,SBD,M
Boys,75,11,Nathan Besler,Brownfield,73.03,127.01,77.11,154.22,358.34,Single-ply,SBD,M
Boys,75,12,Christian Silva,Lubbock Roosevelt,72.8,127.01,81.65,136.08,344.73,Single-ply,SBD,M
Boys,75,13,Prince Kim,Brownfield,72.35,111.13,81.65,145.15,337.93,Single-ply,SBD,M
Boys,75,14,Ricardo Jerez,Lubbock Cooper,71.44,113.4,63.5,136.08,312.98,Single-ply,SBD,M
Boys,82.5,1,Fili Jaquez,Lubbock Cooper,81.19,254.01,156.49,249.48,659.98,Single-ply,SBD,M
Boys,82.5,2,Luis Torrez,Meadow,78.02,185.97,127.01,179.17,492.15,Single-ply,SBD,M
Boys,82.5,3,Brady McClellan,Lubbock Cooper,82.33,176.9,97.52,192.78,467.2,Single-ply,SBD,M
Boys,82.5,4,Eddie Hernandez,Meadow,80.74,174.63,86.18,188.24,449.06,Single-ply,SBD,M
Boys,82.5,5,Raymond Vasquez,Brownfield,76.88,163.29,86.18,181.44,430.91,Single-ply,SBD,M
Boys,82.5,6,Dilyn Castle,Lubbock Roosevelt,79.61,151.95,99.79,174.63,426.38,Single-ply,SBD,M
Boys,82.5,7,Justice Hayes,Tahoka,75.52,149.69,102.06,163.29,415.04,Single-ply,SBD,M
Boys,82.5,8,Rodney Warren,Brownfield,78.47,140.61,83.91,154.22,378.75,Single-ply,SBD,M
Boys,82.5,9,Juan Ramirez,Wolfforth Frenship,76.66,138.35,83.91,133.81,356.07,Single-ply,SBD,M
Boys,82.5,10,Aaron Aguirre,Brownfield,77.34,127.01,72.57,136.08,335.66,Single-ply,SBD,M
Boys,82.5,11,Caleb McDaniel,Wolfforth Frenship,80.74,117.93,72.57,136.08,326.59,Single-ply,SBD,M
Boys,82.5,12,Jon Cortez,Wolfforth Frenship,81.19,117.93,86.18,120.2,324.32,Single-ply,SBD,M
Boys,82.5,13,Lara Bryson,Lubbock Cooper,79.61,108.86,68.04,127.01,303.91,Single-ply,SBD,M
Boys,82.5,DQ,Mikkell Garza,Tahoka,78.47,,,,,Single-ply,SBD,M
Boys,90,1,Devin Elmore,Sundown,89.58,235.87,140.61,167.83,544.31,Single-ply,SBD,M
Boys,90,2,Bradley Bandy,Brownfield,84.59,149.69,102.06,172.37,424.11,Single-ply,SBD,M
Boys,90,3,Matthew Duenes,Lubbock Roosevelt,88.68,154.22,95.25,161.03,410.5,Single-ply,SBD,M
Boys,90,DQ,Tim Rodriguez,Sundown,85.96,,,,,Single-ply,SBD,M
Boys,90,DQ,Lane Rockey,Brownfield,87.54,131.54,,,,Single-ply,SBD,M
Boys,100,1,Sebastian Lopez,Lubbock Cooper,98.43,183.7,136.08,199.58,519.36,Single-ply,SBD,M
Boys,100,2,Matthew Cardenas,Wolfforth Frenship,99.34,185.97,133.81,181.44,501.22,Single-ply,SBD,M
Boys,100,3,Jackson Stevens,Lubbock Cooper,90.72,183.7,106.59,185.97,476.27,Single-ply,SBD,M
Boys,100,4,Andrew Waters,Lubbock Roosevelt,97.07,158.76,104.33,163.29,426.38,Single-ply,SBD,M
Boys,100,5,Dimitri Gomez,Lubbock Roosevelt,93.67,136.08,111.13,163.29,410.5,Single-ply,SBD,M
Boys,100,6,Thompson Bryson,Lubbock Cooper,94.35,158.76,79.38,142.88,381.02,Single-ply,SBD,M
Boys,100,7,Marcus Vega,Tahoka,100,102.06,88.45,117.93,308.44,Single-ply,SBD,M
Boys,110,1,Jeremiah DeLeon,Tahoka,102.51,249.48,158.76,197.31,605.55,Single-ply,SBD,M
Boys,110,2,Caelan Decker,Tahoka,108.18,226.8,149.69,199.58,576.06,Single-ply,SBD,M
Boys,110,3,Eddie Aguirre,Brownfield,102.51,192.78,131.54,190.51,514.83,Single-ply,SBD,M
Boys,110,4,Socorro Rivera,Brownfield,107.95,183.7,111.13,190.51,485.34,Single-ply,SBD,M
Boys,110,5,Jet Grant,Sundown,104.1,195.04,106.59,165.56,467.2,Single-ply,SBD,M
Boys,110,6,Michael Gallegos,Lubbock Cooper,108.86,174.63,104.33,185.97,464.93,Single-ply,SBD,M
Boys,110,7,Tyler Perez,Tahoka,102.06,172.37,111.13,174.63,458.13,Single-ply,SBD,M
Boys,110,DQ,Roman Alvarado,Brownfield,107.95,195.04,106.59,,,Single-ply,SBD,M
Boys,125,1,Jonathan Aguilar,Lubbock Roosevelt,123.6,176.9,127.01,181.44,485.34,Single-ply,SBD,M
Boys,125,2,O'Shae Grant,Wolfforth Frenship,119.07,176.9,92.99,204.12,474,Single-ply,SBD,M
Boys,125,3,Zachary Hensley,Wolfforth Frenship,119.07,176.9,74.84,156.49,408.23,Single-ply,SBD,M
Boys,125+,1,Taylor York,Wolfforth Frenship,132.45,238.14,147.42,235.87,621.42,Single-ply,SBD,M
Boys,125+,2,Todd Garner,Wolfforth Frenship,150.14,238.14,124.74,229.06,591.94,Single-ply,SBD,M
Boys,125+,3,Joseph Villarreal,Lubbock Roosevelt,137.44,229.06,131.54,229.06,589.67,Single-ply,SBD,M
Boys,125+,4,Riley Thompson,Sundown,132,233.6,127.01,215.46,576.06,Single-ply,SBD,M
Boys,125+,5,Byron Lara,Lubbock Cooper,140.39,138.35,226.8,181.44,546.58,Single-ply,SBD,M
Boys,125+,6,Tony Garcia,Tahoka,152.18,185.97,81.65,167.83,435.45,Single-ply,SBD,M
Boys,125+,7,Alexander Dimba,Wolfforth Frenship,181.44,163.29,83.91,140.61,387.82,Single-ply,SBD,M
