Place,WeightClassKg,Name,Equipment,Team,BodyweightKg,Squat1Kg,Squat2Kg,Squat3Kg,Best3SquatKg,Bench1Kg,Bench2Kg,Bench3Kg,Best3BenchKg,Deadlift1Kg,Deadlift2Kg,Deadlift3Kg,Best3DeadliftKg,TotalKg,Division,Sex,Event
1,84,Melissa Evja,Raw,Kristiansand AK,80.40,,,,,55,-60,-60,55.0,,,,,55,Junior 19-23,F,B
1,120,Fredrik B Lier,Raw,Kristiansand AK,108.50,160,170,180,180.0,120,132.5,-140,132.5,190,200,-215,200.0,512.5,Junior 19-23,M,SBD
1,93,Espen Narum,Raw,Kristiansand AK,92.50,160,175,190,190.0,160,177.5,-187.5,177.5,210,230,245,245.0,612.5,Open,M,SBD
1,120,Roald Kollåsen,Raw,Kristiansand AK,118.10,220,235,245,245.0,170,175,180,180.0,252.5,270,287.5,287.5,712.5,Master 40-49,M,SBD
1,66,Birger Sundstøl,Raw,Kristiansand AK,64.40,,,,,75,80,85,85.0,,,,,85,Master 60-69,M,B
