Place,WeightClassKg,Name,Equipment,Team,BodyweightKg,Squat1Kg,Squat2Kg,Squat3Kg,Best3SquatKg,Bench1Kg,Bench2Kg,Bench3Kg,Best3BenchKg,Deadlift1Kg,Deadlift2Kg,Deadlift3Kg,Best3DeadliftKg,TotalKg,Division,Sex,Event
1,84,Ida Rad,Raw,KK-67,81.75,115,122.5,127.5,127.5,65,70,-72.5,70.0,115,120,125,125.0,322.5,Junior 19-23,F,SBD
1,93,Vegard Kjeka Broen,Raw,KK-67,88.70,155,165,170,170.0,105,110,-112.5,110.0,190,202.5,210,210.0,490,Junior 19-23,M,SBD
1,83,Simen Nut Hansen Eliassen,Raw,Sundbyfoss SK,75.30,180,190,200,200.0,102.5,112.5,120,120.0,197.5,207.5,-220,207.5,527.5,Open,M,SBD
1,93,Martin Andreas Paulsen,Raw,KK-67,92.25,180,190,200,200.0,115,122.5,127.5,127.5,177.5,187.5,192.5,192.5,520,Open,M,SBD
2,93,Markus Borthen,Raw,KK-67,91.45,160,170,180,180.0,100,105,107.5,107.5,172.5,185,192.5,192.5,480,Open,M,SBD
1,105,Egil Gjøran Otterholm,Raw,KK-67,97.40,145,155,160,160.0,105,-110,112.5,112.5,190,-200,200,200.0,472.5,Open,M,SBD
