Event,Sex,Name,State,BodyweightKg,WeightClassKg,Division,Best3SquatKg,Best3BenchKg,Best3DeadliftKg,TotalKg,Equipment,Place
SBD,M,Chris Lakus,MB,67.5,67.5,Sub-Junior,110.0,82.5,137.5,330.0,Single-ply,1
SBD,M,Peter Albano,AB,86.4,90,Open,142.5,117.5,195.0,455.0,Single-ply,1
SBD,M,Chad Falk,MB,78.1,82.5,Open,145.0,90.0,205.0,440.0,Single-ply,1
SBD,F,Batten Annette,MB,56.1,60,Open,127.5,65.0,155.5,348.0,Single-ply,1
SBD,F,Susan Haywood,MB,81.5,82.5,Master 2,102.5,72.5,120.0,295.0,Single-ply,1
SBD,F,Tina Gledhill,MB,86.8,90,Master 1,60.0,37.5,95.0,192.5,Single-ply,1
SBD,M,Dave Gledhill,MB,95.6,100,Master 1,130.0,82.5,172.5,385.0,Single-ply,1
SBD,M,Boyd Lyon,AB,80,82.5,Junior,247.5,170.0,252.5,670.0,Single-ply,1
SBD,M,Tom Winget,MB,133.8,125+,Junior,255.0,150.0,272.5,677.5,Single-ply,1
