Place,WeightClassKg,Name,Equipment,Team,BodyweightKg,Squat1Kg,Squat2Kg,Squat3Kg,Best3SquatKg,Bench1Kg,Bench2Kg,Bench3Kg,Best3BenchKg,Deadlift1Kg,Deadlift2Kg,Deadlift3Kg,Best3DeadliftKg,TotalKg,Division,Sex,Event
1,72,Ingrid Elisabeth Fjeldstad,Raw,OPIL,71.90,120,127.5,-132.5,127.5,72.5,77.5,80,80.0,145,155,160,160.0,367.5,Open,F,SBD
1,93,Espen Elvehøi,Raw,OPIL,87.60,197.5,210,217.5,217.5,117.5,125,127.5,127.5,217.5,230,240,240.0,585,Open,M,SBD
G,72,Andrea Christiansen,Raw,Nes SIL,66.10,75,82.5,87.5,87.5,50,55,57.5,57.5,120,130,132.5,132.5,277.5,Teen 14-18,F,SBD
G,72,Tonje Teig,Raw,Nes SIL,71.50,95,100,102.5,102.5,50,52.5,55,55.0,140,-157.5,,140.0,297.5,Open,F,SBD
G,84,Ingelin Hansen,Raw,Christiania AK,77.30,90,95,-100,95.0,50,52.5,55,55.0,100,105,-110,105.0,255,Open,F,SBD
G,63,Hege Velten,Raw,Christiania AK,62.50,92.5,95,-97.5,95.0,57.5,60,62.5,62.5,117.5,127.5,,127.5,285,Master 40-49,F,SBD
G,120,Sindre Andre Haug,Raw,Christiania AK,114.30,,,,,97.5,102.5,107.5,107.5,,,,,107.5,Open,M,B
