Name,Sex,Event,Age,BodyweightKg,WeightClassKg,Squat1Kg,Squat2Kg,Squat3Kg,Best3SquatKg,Bench1Kg,Bench2Kg,Bench3Kg,Best3BenchKg,Bench4Kg,Deadlift1Kg,Deadlift2Kg,Deadlift3Kg,Deadlift4Kg,Best3DeadliftKg,TotalKg,Equipment,Division,Place
Jamie Snow,F,SBD,23,59.7,60,-98,100,-102,100,45,47.5,50.5,50.5,-52.5,110,113,-115,,113,263.5,Raw,Open,1
Diana Hammond,F,SBD,29,64.9,67.5,45,60,-75,60,40,-47.5,-47.5,40,,85,100,-110,,100,200,Raw,Open,3
Carly Dixon Craddock,F,SBD,12,63.5,67.5,55,60,65,65,30,35,-40,35,,65,75,-85,,75,175,Raw,Open,4
Jack McEvoy,M,D,8,27,48,,,,,,,,,,60,65,70.5,,70.5,70.5,Raw,Open,1
Tenesia Samuel,F,SBD,25,67.8,75,60,75,85,85,60,-75,75,75,,85,100,115,,115,275,Raw,Open,3
Marina Tronin,F,SBD,24,60.8,67.5,-92.5,-92.5,92.5,92.5,45,50,-52.5,50,,105,112.5,120,,120,262.5,Raw,Open,2
Spencer McCann,M,SBD,16,55,56,90,95,-100,95,60,70,-75,70,,-115,115,125,,125,290,Raw,Open,1
Katie McGeachy,F,SBD,21,70.6,75,-95,97.5,107.5,107.5,55,57.5,62.5,62.5,,125,-132.5,-132.5,,125,295,Raw,Open,2
Christine Beauchamp,F,SBD,18,64.99,67.5,100,120,-132.5,120,47.5,55,-60,55,,110,130,-137.5,,130,305,Raw,Open,1
Shannon St. Michael,F,SBD,26,73,75,90,105,115,115,62.5,70,-75,70,,125,,,,125,310,Raw,Open,1
Ashley Greer,F,D,22,92.6,90+,,,,,,,,,,-137.5,-142.5,142.5,,142.5,142.5,Raw,Open,1
Sahil Mulla,M,D,25,59,60,,,,,,,,,,145,165,182.5,,182.5,182.5,Raw,Open,1
Sheila Paulin,F,SBD,19,105.8,90+,105,-110,115,115,-65,-65,-65,,,,,,,,,Raw,Open,DQ
Benjamin Butty,M,SBD,21,66.9,67.5,190,205,210,210,105,117.5,-125,117.5,,250,,,,250,577.5,Raw,Open,1
Matthew Taylor,M,SBD,16,66.3,67.5,100,105,107.5,107.5,60,-65,70,70,,75,,,,75,252.5,Raw,Open,2
Daniel Remulla,M,B,20,65.2,67.5,,,,,127.5,135,140,140,,,,,,,140,Raw,Open,1
Christopher Corvese,M,SBD,21,74.6,75,150,162.5,175,175,95,-102.5,-102.5,95,,195,210,-227.5,,210,480,Raw,Open,1
Adrian Nichol,M,SBD,22,70.5,75,160,172.5,-182.5,172.5,100,112.5,117.5,117.5,-122.5,212.5,225,227.5,-230,227.5,517.5,Raw,Open,2
Allesandro Demarchi,M,B,21,69.07,75,,,,,-95,95,-110,95,,,,,,,95,Raw,Open,1
Jack Shier,M,SBD,16,80,82.5,110,115,-117.5,115,-72,77.5,-82.5,77.5,,135,142.5,147.5,,147.5,340,Raw,Open,7
Chris Ball,M,SBD,31,81.4,82.5,155,157.5,165,165,-87.5,87.5,-97.5,87.5,,155,-165,165,,165,417.5,Raw,Open,5
Sean Behan,M,SBD,23,80.5,82.5,125,132.5,-142.5,132.5,80,87.5,-90,87.5,,165,182.5,192.5,,192.5,412.5,Raw,Open,6
Vito Francone,M,SBD,25,81,82.5,152.5,162.5,-170,162.5,110,-115,-115,110,,192.5,202.5,212.5,,212.5,485,Raw,Open,3
Aaron Valenta,M,SBD,25,80.91,82.5,157.5,165,-167.5,165,92.5,97.5,100,100,,205,215,220,,220,485,Raw,Open,4
David Carvalho,M,SBD,27,81.61,82.5,195,210,-215,210,-115,120,130,130,,205,215,-220,,215,555,Raw,Open,1
Peter Ciolfitto,M,SBD,21,81.5,82.5,160,182.5,192.5,192.5,105,-115,115,115,,210,-227.5,-227.5,,210,517.5,Raw,Open,2
Luke Redman,M,SBD,19,78.5,82.5,102.5,115,-130,115,-100,-100,-100,,,,,,,,,Raw,Open,DQ
Orson Lui,M,SBD,18,87.59,90,125,137.5,150,150,80,87.5,-95,87.5,,152.5,165,-182.5,,165,402.5,Raw,Open,5
Paul Koskinen,M,SBD,47,97.5,100,110,-125,-130,110,95,110,-115,110,,160,175,195,,195,415,Raw,Open,4
John Phung,M,SBD,31,87.9,90,182.5,200,220,220,-140,140,-145,140,,182.5,,,,182.5,542.5,Raw,Open,1
Kevin Stirling,M,SBD,56,88.32,90,135,160,175,175,115,120,127.5,127.5,,185,200,210,,210,512.5,Raw,Open,2
Ron Dillig,M,SBD,49,88.5,90,150,165,170,170,125,-130,-130,125,,192.5,206,-210,,206,501,Raw,Open,3
Kenneth Sitthikorn,M,SBD,21,89.3,90,165,175,,175,100,107.5,-112.5,107.5,,200,210,-212.5,,210,492.5,Raw,Open,4
Jason Howes,M,SBD,27,89.7,90,165,-170,170,170,-135,-135,135,135,,210,222.5,230,,230,535,Raw,Open,8
Paul Mathews,M,SBD,42,93.6,100,210,225,-232.5,225,147.5,-160,-160,147.5,,220,237.5,-255,,237.5,610,Raw,Open,5
Sidney Abou Sawan,M,SBD,19,88.5,90,192.5,215,227.5,227.5,102.5,115,125,125,,237.5,257.5,-272.5,,257.5,610,Raw,Open,7
Mathieu Lavigne,M,SBD,22,87.3,90,192.5,205,-222.5,205,-142.5,-147.5,150,150,,250,257.5,-272.5,,257.5,612.5,Raw,Open,6
Jason Majin,M,B,36,89.8,90,,,,,135,145,-153,145,,,,,,,145,Raw,Open,2
Chris Sousa,M,B,27,89.5,90,,,,,155,162.5,-165,162.5,,,,,,,162.5,Raw,Open,1
Ashwin Naik,M,SBD,31,93,100,155,-165,-170,155,-92.5,-95,95,95,,-210,-210,210,,210,,Raw,Open,DQ
Dan Gabcan,M,SBD,29,99.8,100,-217.5,217.5,,217.5,-135,135,-142.5,135,,220,245,255,,255,607.5,Raw,Open,3
Frankie Mayer,M,SBD,36,98.5,100,195,207.5,-215,207.5,147.5,152.5,155.5,155.5,,220,240,248,,248,611,Raw,Open,2
Taylor Shadgett,M,SBD,23,98.8,100,255,275,290,290,135,150,-157.5,150,,255,-277.5,277.5,,277.5,717.5,Raw,Open,1
Matt McCormack,M,SBD,35,100.53,110,150,160,170,170,110,120,-125,120,,175,-185,185,,185,475,Raw,Open,2
Jason Hansen,M,SBD,35,104,110,200,-210,-215,200,120,125,-130,125,,230,250,-260,,250,575,Raw,Open,1
Simon Blais,M,BD,25,108,110,,,,,167.5,175,-182.5,175,,282.5,292.5,300,,300,475,Raw,Open,1
Martin Wong,M,B,17,109.3,110,,,,,140,150,155,155,,,,,,,155,Raw,Open,1
Val Ataev,M,B,43,101,110,,,,,,-150,150,150,,,,,,,150,Raw,Open,2
Dale MacDonald,M,SBD,36,124.24,125,180,200,-227.5,200,122.5,150,160,160,,227.5,257.5,272.5,,272.5,632.5,Raw,Open,1
Chris Goodman,M,SBD,29,115,125,152.5,-165,172.5,172.5,142.5,152.5,-165,152.5,,227.5,235,-250,,235,560,Raw,Open,3
Rich Machell,M,SBD,29,123.5,125,205,215,-220,215,150,162.5,-167.5,162.5,,240,252.5,-257.5,,252.5,630,Raw,Open,2
George Flikas,M,B,69,124.9,125,,,,,175,185,-188,185,,,,,,,185,Raw,Open,2
Ian Sanderson,M,B,32,118.21,125,,,,,185,195,197.5,197.5,-200,,,,,,197.5,Raw,Open,1
Brody Thorne,M,SBD,34,100,,,,,,,,,,,,,,,,,Raw,Open,DQ
Brent Cecchini,M,SBD,46,110,,,,,,,,,,,,,,,,,Raw,Open,DQ
