Place,Name,State,WeightClassKg,BodyweightKg,Age,Best3SquatKg,Best3BenchKg,Best3DeadliftKg,TotalKg,Sex,Division,Equipment,Event
1,Alejandra Rice,WY,82.5,82.4,15,130,55,145,330,F,Junior 13-15,Raw,SBD
1,Lisa Turner,CO,52,52,29,112.5,57.5,130,300,F,Open,Raw,SBD
1,Nicole Lamartine,WY,56,52.9,42,125,70,160,355,F,Open,Raw,SBD
1,Sydnee Jameson,WY,60,57.4,29,80,57.5,135,272.5,F,Open,Raw,SBD
DQ,Jolee Springman,WY,60,58.4,24,72.5,,117.5,,F,Open,Raw,SBD
1,Kelsey Horton,SD,67.5,60.1,27,160,75,185,420,F,Open,Raw,SBD
2,Liz Withers,WY,67.5,67.2,25,160,87.5,162.5,410,F,Open,Raw,SBD
3,Keandra Mcgarr,CO,67.5,67.4,25,105,72.5,150,327.5,F,Open,Raw,SBD
4,Ashley Ortiz,WY,67.5,65.3,30,102.5,60,125,287.5,F,Open,Raw,SBD
5,Cati Stanko,NE,67.5,62.1,23,107.5,50,117.5,275,F,Open,Raw,SBD
6,Becky Thoman,WY,67.5,66,31,72.5,45,95,212.5,F,Open,Raw,SBD
1,Natalie Allen,WY,75,73.9,25,75,55,125,255,F,Open,Raw,SBD
1,Felicia Rojas,NE,82.5,81.2,42,165,87.5,177.5,430,F,Open,Raw,SBD
1,Tristin Williams,WY,90,86.8,36,145,90,160,395,F,Open,Raw,SBD
1,Anna Fetter,WY,90+,96.7,27,100,60,122.5,282.5,F,Open,Raw,SBD
1,Melissa Hull,WY,67.5,64.1,35,80,47.5,110,237.5,F,Submaster 35-39,Raw,SBD
1,Hally Killion,WY,75,73.3,38,132.5,77.5,187.5,397.5,F,Submaster 35-39,Raw,SBD
1,Katie Williams,WY,90+,96.9,36,92.5,57.5,100,250,F,Submaster 35-39,Raw,SBD
1,Kimberly Murray,CO,52,51.6,48,57.5,42.5,105,205,F,Master 45-49,Raw,SBD
1,Nicole Lamartine,WY,56,52.9,42,125,70,160,355,F,Master 40-44,Raw,SBD
1,Felicia Rojas,NE,82.5,81.2,42,165,87.5,177.5,430,F,Master 40-44,Raw,SBD
1,Andy Jones,WY,56,55.1,12,67.5,47.5,77.5,192.5,M,Master 40-44,Raw,SBD
DQ,Garrett Angell,WY,52,,22,,,,,M,Junior 20-23,Raw,SBD
1,Jake Conley,CO,75,75,17,145,120,190,455,M,Junior 16-17,Raw,SBD
1,Kevin Dasis,WY,82.5,80.5,19,185,122.5,185,492.5,M,Junior 18-19,Raw,SBD
1,Jared Wilson,WY,90,88,22,160,115,227.5,502.5,M,Junior 20-23,Raw,SBD
1,Jaden Rasmussen,WY,100,92.5,17,197.5,140,227.5,565,M,Junior 16-17,Raw,SBD
1,Jeffery Brennan,WY,100,91.1,22,167.5,127.5,202.5,497.5,M,Junior 20-23,Raw,SBD
1,Aaron Erickson,WY,110,109.5,19,282.5,182.5,287.5,752.5,M,Junior 18-19,Raw,SBD
1,Victor Gutierrez,WY,125,121.6,23,175,100,185,460,M,Junior 20-23,Raw,SBD
1,Jayden Vap,NM,140,126.3,15,217.5,142.5,202.5,562.5,M,Junior 13-15,Raw,SBD
1,Alek Torres,WY,67.5,66.4,26,152.5,107.5,200,460,M,Open,Raw,SBD
1,Joseph Rosacker,WY,75,74.2,26,162.5,107.5,195,465,M,Open,Raw,SBD
1,Damien Pezzuti,PA,82.5,78.3,30,265,175,287.5,727.5,M,Open,Raw,SBD
2,Kevin Dasis,WY,82.5,80.5,19,185,122.5,185,492.5,M,Open,Raw,SBD
DQ,Israel Spottedhorse,WY,82.5,81.7,26,,140,285,,M,Open,Raw,SBD
1,Chris Bartley #1,CO,90,89,42,240,160,282.5,682.5,M,Open,Raw,SBD
2,Jeronimo Provencio,WY,90,89.2,26,200,142.5,240,582.5,M,Open,Raw,SBD
1,Aaron Erickson,WY,110,109.5,19,282.5,182.5,287.5,752.5,M,Open,Raw,SBD
2,Zach D'Amico,WY,110,109.9,24,225,145,235,605,M,Open,Raw,SBD
1,Marty Killion,WY,125,121.6,47,245,210,280,735,M,Open,Raw,SBD
2,John Mastin,WY,125,119.9,40,212.5,182.5,250,645,M,Open,Raw,SBD
3,Tristan Tilberg,,125,118.2,30,192.5,142.5,240,575,M,Open,Raw,SBD
1,Chris Sommercorn,WY,140+,151,26,145,117.5,150,412.5,M,Open,Raw,SBD
1,Randall Homan,WY,90,88,35,152.5,110,190,452.5,M,Submaster 35-39,Raw,SBD
1,Tommy Upp,WY,100,90.9,39,120,95,160,375,M,Submaster 35-39,Raw,SBD
1,Marty Evenson,CO,140,131.5,35,212.5,157.5,225,595,M,Submaster 35-39,Raw,SBD
1,Brian Radulovich,CO,100,99,42,257.5,155,277.5,690,M,Master 40-44,Raw,SBD
1,Rudy Stanko,NE,110,103,70,130,145,152.5,427.5,M,Master 70-74,Raw,SBD
1,John Mastin,WY,125,119.9,40,212.5,182.5,250,645,M,Master 40-44,Raw,SBD
2,John Chevarria,WY,125,114.6,44,185,155,207.5,547.5,M,Master 40-44,Raw,SBD
1,Marty Killion,WY,125,121.6,47,245,210,280,735,M,Master 45-49,Raw,SBD
1,Desiree Hooper,CO,60,58.1,23,110,55,115,280,F,Junior 20-23,Wraps,SBD
1,Desiree Hooper,CO,60,58.1,23,110,55,115,280,F,Open,Wraps,SBD
1,Nicole Nies,CO,75,73.2,39,145,75,170,390,F,Open,Wraps,SBD
1,Jen Lee,CO,75,73,37,92.5,52.5,137.5,282.5,F,Submaster 35-39,Wraps,SBD
1,Zack Kishiyama,NE,82.5,81.2,17,175,112.5,200,487.5,M,Junior 16-17,Wraps,SBD
1,Dahlton Tarno,WY,90,85.4,19,170,115,210,495,M,Junior 18-19,Wraps,SBD
1,Garrett Peterson,WY,110,109.1,18,175,97.5,240,512.5,M,Junior 18-19,Wraps,SBD
1,Troy Kinoshita,CO,75,74.6,30,185,137.5,232.5,555,M,Open,Wraps,SBD
1,Patrick Spiker,WY,90,88.7,28,272.5,155,265,692.5,M,Open,Wraps,SBD
1,Kevin Miller,WY,100,98.3,33,267.5,145,260,672.5,M,Open,Wraps,SBD
2,Clay Allen,WY,100,97,25,217.5,167.5,250,635,M,Open,Wraps,SBD
1,Kyle Nordstrom,CO,110,109.9,33,305,195,320,820,M,Open,Wraps,SBD
DQ,John Kelley,CO,110,109.1,36,,,,,M,Open,Wraps,SBD
1,Johnathan Nichelson,WY,75,74.2,38,195,122.5,205,522.5,M,Submaster 35-39,Wraps,SBD
1,Armando Contreras,CO,82.5,82,35,185,130,212.5,527.5,M,Submaster 35-39,Wraps,SBD
1,Chad Brannaman,WY,140,138.4,36,235,185,277.5,697.5,M,Submaster 35-39,Wraps,SBD
DQ,Dan Czech,CO,110,110,50,,,,,M,Master 50-54,Wraps,SBD
1,Hayley Switzer,WY,90+,111.6,26,202.5,100,182.5,485,F,Open,Single-ply,SBD
1,Dan Ortiz,CO,75,75,31,212.5,160,215,587.5,M,Open,Single-ply,SBD
1,Donnie Lane,WY,100,95.1,44,227.5,130,240,597.5,M,Master 40-44,Single-ply,SBD
1,Ashley Ortiz,WY,67.5,65.3,30,,60,,60,F,Open,Raw,B
1,Felicia Rojas,NE,82.5,81.2,42,,87.5,,87.5,F,Open,Raw,B
1,Melissa Hull,WY,67.5,64.1,35,,47.5,,47.5,F,Submaster 35-39,Raw,B
1,Felicia Rojas,NE,82.5,81.2,42,,87.5,,87.5,F,Master 40-44,Raw,B
1,Jake Conley,CO,75,75,17,,120,,120,M,Junior 16-17,Raw,B
1,Kyle Nordstrom,CO,110,109.9,33,,195,,195,M,Open,Raw,B
1,Carlos Rojas,NE,125,124.8,44,,245,,245,M,Open,Raw,B
2,John Mastin,WY,125,119.9,40,,182.5,,182.5,M,Open,Raw,B
1,Matt Hummel,CO,100,94.43,39,,132.5,,132.5,M,Submaster 35-39,Raw,B
1,Carlos Rojas,NE,125,124.8,44,,245,,245,M,Master 40-44,Raw,B
2,John Mastin,WY,125,119.9,40,,182.5,,182.5,M,Master 40-44,Raw,B
1,Dan Ortiz,CO,75,75,31,,160,,160,M,Open,Single-ply,B
1,Bill Collins,WY,140,140,56,,252.5,,252.5,M,Open,Single-ply,B
1,Ashley Ortiz,WY,67.5,65.3,30,,,125,125,F,Open,Raw,D
1,Linda Hanley,CO,90+,106,56,,,187.5,187.5,F,Open,Raw,D
1,Melissa Hull,WY,67.5,64.1,35,,,110,110,F,Submaster 35-39,Raw,D
1,Jen Ammerman,CO,90,82.9,45,,,132.5,132.5,F,Master 45-49,Raw,D
1,Linda Hanley,CO,90+,106,56,,,187.5,187.5,F,Master 55-59,Raw,D
1,Jake Conley,CO,75,75,17,,,190,190,M,Junior 16-17,Raw,D
DQ,Paul Boss,WY,82.5,76.9,16,,,,,M,Junior 16-17,Raw,D
1,Troy Kinoshita,CO,75,74.6,30,,,232.5,232.5,M,Open,Raw,D
2,Ryan Hughes,WY,75,72.5,34,,,230,230,M,Open,Raw,D
1,Israel Spottedhorse,WY,82.5,81.7,26,,,285,285,M,Open,Raw,D
1,John Mastin,WY,125,119.9,40,,,250,250,M,Open,Raw,D
1,Jordan Betz,UT,140,127.1,27,,,320,320,M,Open,Raw,D
1,Chris Sommercorn,WY,140+,151,26,,,150,150,M,Open,Raw,D
1,Matt Hummel,CO,100,94.43,39,,,197.5,197.5,M,Submaster 35-39,Raw,D
1,John Mastin,WY,125,119.9,40,,,250,250,M,Master 40-44,Raw,D
1,Bill Collins,WY,140,140,56,,,277.5,277.5,M,Open,Single-ply,D
