Event,Sex,Name,State,BodyweightKg,WeightClassKg,Division,Best3SquatKg,Best3BenchKg,Best3DeadliftKg,TotalKg,Equipment,Place
B,M,Peter Siepierski,NS,81.2,82.5,Junior,,127.5,,127.5,Single-ply,1
B,M,David Desrosiers,QU,82,82.5,Junior,,127.5,,127.5,Single-ply,2
B,M,Cedric Chartier,QU,73.6,75,Junior,,100.0,,100.0,Single-ply,1
B,M,Kevin Thibeault,NS,63.6,67.5,Junior,,85.0,,85.0,Single-ply,1
B,M,Clyde Deveau,NS,142.5,125+,Junior,,150.0,,150.0,Single-ply,2
B,M,Brad Kleefeld,SK,127,125+,Junior,,220.0,,220.0,Single-ply,1
B,M,Alex Mardell,AB,109.3,110,Junior,,170.0,,170.0,Single-ply,1
B,M,Alexandre Pelletier,QU,95.5,100,Junior,,152.5,,152.5,Single-ply,1
