Place,WeightClassKg,Name,Equipment,Team,BodyweightKg,Squat1Kg,Squat2Kg,Squat3Kg,Best3SquatKg,Bench1Kg,Bench2Kg,Bench3Kg,Best3BenchKg,Deadlift1Kg,Deadlift2Kg,Deadlift3Kg,Best3DeadliftKg,TotalKg,Division,Sex,Event
1,120+,Arkadiusz Kowalski,Raw,Halden SI,128.20,-130,130,140,140.0,105,-110,-110,105.0,150,160,-165,160.0,405,Junior 19-23,M,SBD
1,120,Terje C. Samuelsen,Raw,Halden SI,109.70,,,,,120,130,142.5,142.5,,,,,142.5,Master 50-59,M,B
