Place,WeightClassKg,Name,Equipment,Team,BodyweightKg,Squat1Kg,Squat2Kg,Squat3Kg,Best3SquatKg,Bench1Kg,Bench2Kg,Bench3Kg,Best3BenchKg,Deadlift1Kg,Deadlift2Kg,Deadlift3Kg,Best3DeadliftKg,TotalKg,Division,Sex,Event
1,57,Mila Cheyenne Pischel,Raw,Lenja AK,56.20,87.5,92.5,-95,92.5,37.5,40,42.5,42.5,87.5,92.5,97.5,97.5,232.5,Teen 14-18,F,SBD
1,120,John Anders Terland,Raw,Jeløy AK,106.70,,,,,145,152.5,155,155.0,,,,,155,Open,M,B
1,120,Runar Saxegård,Raw,Lenja AK,116.65,130,135,140,140.0,160,-167.5,172.5,172.5,180,200,210,210.0,522.5,Master 40-49,M,SBD
2,120,Thomas Lilleborgen,Raw,Turn og IL National,105.70,,,,,145,155,160,160.0,,,,,160,Master 40-49,M,B
1,105,Ole Jakob Aas,Raw,Lenja AK,97.60,-190,190,195,195.0,105,,,105.0,200,210,-222.5,210.0,510,Master 50-59,M,SBD
1,105,Truls Kristensen,Raw,Askim SK,104.60,,,,,90,102.5,110,110.0,,,,,110,Master +70,M,B
2,105,Egil Kroknes,Raw,Halden SI,93.10,,,,,80,85,,85.0,,,,,85,Master +70,M,B
